%!PS-Adobe-3.0 EPSF-3.0
%%Creator: (MATLAB, The Mathworks, Inc. Version 9.4.0.813654 \(R2018a\). Operating System: Windows 10)
%%Title: (C:/Users/basil/OneDrive/???????????/THMMY/??????????? ??? ?????????????/simulation-and-modelling-of-dynamic-systems/project1/???????/10.20.eps)
%%CreationDate: 2022-04-08T23:12:04
%%Pages: (atend)
%%BoundingBox: 0 0 1025 488
%%LanguageLevel: 3
%%EndComments
%%BeginProlog
%%BeginResource: procset (Apache XML Graphics Std ProcSet) 1.2 0
%%Version: 1.2 0
%%Copyright: (Copyright 2001-2003,2010 The Apache Software Foundation. License terms: http://www.apache.org/licenses/LICENSE-2.0)
/bd{bind def}bind def
/ld{load def}bd
/GR/grestore ld
/GS/gsave ld
/RM/rmoveto ld
/C/curveto ld
/t/show ld
/L/lineto ld
/ML/setmiterlimit ld
/CT/concat ld
/f/fill ld
/N/newpath ld
/S/stroke ld
/CC/setcmykcolor ld
/A/ashow ld
/cp/closepath ld
/RC/setrgbcolor ld
/LJ/setlinejoin ld
/GC/setgray ld
/LW/setlinewidth ld
/M/moveto ld
/re {4 2 roll M
1 index 0 rlineto
0 exch rlineto
neg 0 rlineto
cp } bd
/_ctm matrix def
/_tm matrix def
/BT { _ctm currentmatrix pop matrix _tm copy pop 0 0 moveto } bd
/ET { _ctm setmatrix } bd
/iTm { _ctm setmatrix _tm concat } bd
/Tm { _tm astore pop iTm 0 0 moveto } bd
/ux 0.0 def
/uy 0.0 def
/F {
  /Tp exch def
  /Tf exch def
  Tf findfont Tp scalefont setfont
  /cf Tf def  /cs Tp def
} bd
/ULS {currentpoint /uy exch def /ux exch def} bd
/ULE {
  /Tcx currentpoint pop def
  gsave
  newpath
  cf findfont cs scalefont dup
  /FontMatrix get 0 get /Ts exch def /FontInfo get dup
  /UnderlinePosition get Ts mul /To exch def
  /UnderlineThickness get Ts mul /Tt exch def
  ux uy To add moveto  Tcx uy To add lineto
  Tt setlinewidth stroke
  grestore
} bd
/OLE {
  /Tcx currentpoint pop def
  gsave
  newpath
  cf findfont cs scalefont dup
  /FontMatrix get 0 get /Ts exch def /FontInfo get dup
  /UnderlinePosition get Ts mul /To exch def
  /UnderlineThickness get Ts mul /Tt exch def
  ux uy To add cs add moveto Tcx uy To add cs add lineto
  Tt setlinewidth stroke
  grestore
} bd
/SOE {
  /Tcx currentpoint pop def
  gsave
  newpath
  cf findfont cs scalefont dup
  /FontMatrix get 0 get /Ts exch def /FontInfo get dup
  /UnderlinePosition get Ts mul /To exch def
  /UnderlineThickness get Ts mul /Tt exch def
  ux uy To add cs 10 mul 26 idiv add moveto Tcx uy To add cs 10 mul 26 idiv add lineto
  Tt setlinewidth stroke
  grestore
} bd
/QT {
/Y22 exch store
/X22 exch store
/Y21 exch store
/X21 exch store
currentpoint
/Y21 load 2 mul add 3 div exch
/X21 load 2 mul add 3 div exch
/X21 load 2 mul /X22 load add 3 div
/Y21 load 2 mul /Y22 load add 3 div
/X22 load /Y22 load curveto
} bd
/SSPD {
dup length /d exch dict def
{
/v exch def
/k exch def
currentpagedevice k known {
/cpdv currentpagedevice k get def
v cpdv ne {
/upd false def
/nullv v type /nulltype eq def
/nullcpdv cpdv type /nulltype eq def
nullv nullcpdv or
{
/upd true def
} {
/sametype v type cpdv type eq def
sametype {
v type /arraytype eq {
/vlen v length def
/cpdvlen cpdv length def
vlen cpdvlen eq {
0 1 vlen 1 sub {
/i exch def
/obj v i get def
/cpdobj cpdv i get def
obj cpdobj ne {
/upd true def
exit
} if
} for
} {
/upd true def
} ifelse
} {
v type /dicttype eq {
v {
/dv exch def
/dk exch def
/cpddv cpdv dk get def
dv cpddv ne {
/upd true def
exit
} if
} forall
} {
/upd true def
} ifelse
} ifelse
} if
} ifelse
upd true eq {
d k v put
} if
} if
} if
} forall
d length 0 gt {
d setpagedevice
} if
} bd
/RE { % /NewFontName [NewEncodingArray] /FontName RE -
  findfont dup length dict begin
  {
    1 index /FID ne
    {def} {pop pop} ifelse
  } forall
  /Encoding exch def
  /FontName 1 index def
  currentdict definefont pop
  end
} bind def
%%EndResource
%%BeginResource: procset (Apache XML Graphics EPS ProcSet) 1.0 0
%%Version: 1.0 0
%%Copyright: (Copyright 2002-2003 The Apache Software Foundation. License terms: http://www.apache.org/licenses/LICENSE-2.0)
/BeginEPSF { %def
/b4_Inc_state save def         % Save state for cleanup
/dict_count countdictstack def % Count objects on dict stack
/op_count count 1 sub def      % Count objects on operand stack
userdict begin                 % Push userdict on dict stack
/showpage { } def              % Redefine showpage, { } = null proc
0 setgray 0 setlinecap         % Prepare graphics state
1 setlinewidth 0 setlinejoin
10 setmiterlimit [ ] 0 setdash newpath
/languagelevel where           % If level not equal to 1 then
{pop languagelevel             % set strokeadjust and
1 ne                           % overprint to their defaults.
{false setstrokeadjust false setoverprint
} if
} if
} bd
/EndEPSF { %def
count op_count sub {pop} repeat            % Clean up stacks
countdictstack dict_count sub {end} repeat
b4_Inc_state restore
} bd
%%EndResource
%FOPBeginFontDict
%%IncludeResource: font Courier-Oblique
%%IncludeResource: font Courier-BoldOblique
%%IncludeResource: font Courier-Bold
%%IncludeResource: font ZapfDingbats
%%IncludeResource: font Symbol
%%IncludeResource: font Helvetica
%%IncludeResource: font Helvetica-Oblique
%%IncludeResource: font Helvetica-Bold
%%IncludeResource: font Helvetica-BoldOblique
%%IncludeResource: font Times-Roman
%%IncludeResource: font Times-Italic
%%IncludeResource: font Times-Bold
%%IncludeResource: font Times-BoldItalic
%%IncludeResource: font Courier
%FOPEndFontDict
%%BeginResource: encoding WinAnsiEncoding
/WinAnsiEncoding [
/.notdef /.notdef /.notdef /.notdef /.notdef
/.notdef /.notdef /.notdef /.notdef /.notdef
/.notdef /.notdef /.notdef /.notdef /.notdef
/.notdef /.notdef /.notdef /.notdef /.notdef
/.notdef /.notdef /.notdef /.notdef /.notdef
/.notdef /.notdef /.notdef /.notdef /.notdef
/.notdef /.notdef /space /exclam /quotedbl
/numbersign /dollar /percent /ampersand /quotesingle
/parenleft /parenright /asterisk /plus /comma
/hyphen /period /slash /zero /one
/two /three /four /five /six
/seven /eight /nine /colon /semicolon
/less /equal /greater /question /at
/A /B /C /D /E
/F /G /H /I /J
/K /L /M /N /O
/P /Q /R /S /T
/U /V /W /X /Y
/Z /bracketleft /backslash /bracketright /asciicircum
/underscore /quoteleft /a /b /c
/d /e /f /g /h
/i /j /k /l /m
/n /o /p /q /r
/s /t /u /v /w
/x /y /z /braceleft /bar
/braceright /asciitilde /bullet /Euro /bullet
/quotesinglbase /florin /quotedblbase /ellipsis /dagger
/daggerdbl /circumflex /perthousand /Scaron /guilsinglleft
/OE /bullet /Zcaron /bullet /bullet
/quoteleft /quoteright /quotedblleft /quotedblright /bullet
/endash /emdash /asciitilde /trademark /scaron
/guilsinglright /oe /bullet /zcaron /Ydieresis
/space /exclamdown /cent /sterling /currency
/yen /brokenbar /section /dieresis /copyright
/ordfeminine /guillemotleft /logicalnot /sfthyphen /registered
/macron /degree /plusminus /twosuperior /threesuperior
/acute /mu /paragraph /middot /cedilla
/onesuperior /ordmasculine /guillemotright /onequarter /onehalf
/threequarters /questiondown /Agrave /Aacute /Acircumflex
/Atilde /Adieresis /Aring /AE /Ccedilla
/Egrave /Eacute /Ecircumflex /Edieresis /Igrave
/Iacute /Icircumflex /Idieresis /Eth /Ntilde
/Ograve /Oacute /Ocircumflex /Otilde /Odieresis
/multiply /Oslash /Ugrave /Uacute /Ucircumflex
/Udieresis /Yacute /Thorn /germandbls /agrave
/aacute /acircumflex /atilde /adieresis /aring
/ae /ccedilla /egrave /eacute /ecircumflex
/edieresis /igrave /iacute /icircumflex /idieresis
/eth /ntilde /ograve /oacute /ocircumflex
/otilde /odieresis /divide /oslash /ugrave
/uacute /ucircumflex /udieresis /yacute /thorn
/ydieresis
] def
%%EndResource
%FOPBeginFontReencode
/Courier-Oblique findfont
dup length dict begin
  {1 index /FID ne {def} {pop pop} ifelse} forall
  /Encoding WinAnsiEncoding def
  currentdict
end
/Courier-Oblique exch definefont pop
/Courier-BoldOblique findfont
dup length dict begin
  {1 index /FID ne {def} {pop pop} ifelse} forall
  /Encoding WinAnsiEncoding def
  currentdict
end
/Courier-BoldOblique exch definefont pop
/Courier-Bold findfont
dup length dict begin
  {1 index /FID ne {def} {pop pop} ifelse} forall
  /Encoding WinAnsiEncoding def
  currentdict
end
/Courier-Bold exch definefont pop
/Helvetica findfont
dup length dict begin
  {1 index /FID ne {def} {pop pop} ifelse} forall
  /Encoding WinAnsiEncoding def
  currentdict
end
/Helvetica exch definefont pop
/Helvetica-Oblique findfont
dup length dict begin
  {1 index /FID ne {def} {pop pop} ifelse} forall
  /Encoding WinAnsiEncoding def
  currentdict
end
/Helvetica-Oblique exch definefont pop
/Helvetica-Bold findfont
dup length dict begin
  {1 index /FID ne {def} {pop pop} ifelse} forall
  /Encoding WinAnsiEncoding def
  currentdict
end
/Helvetica-Bold exch definefont pop
/Helvetica-BoldOblique findfont
dup length dict begin
  {1 index /FID ne {def} {pop pop} ifelse} forall
  /Encoding WinAnsiEncoding def
  currentdict
end
/Helvetica-BoldOblique exch definefont pop
/Times-Roman findfont
dup length dict begin
  {1 index /FID ne {def} {pop pop} ifelse} forall
  /Encoding WinAnsiEncoding def
  currentdict
end
/Times-Roman exch definefont pop
/Times-Italic findfont
dup length dict begin
  {1 index /FID ne {def} {pop pop} ifelse} forall
  /Encoding WinAnsiEncoding def
  currentdict
end
/Times-Italic exch definefont pop
/Times-Bold findfont
dup length dict begin
  {1 index /FID ne {def} {pop pop} ifelse} forall
  /Encoding WinAnsiEncoding def
  currentdict
end
/Times-Bold exch definefont pop
/Times-BoldItalic findfont
dup length dict begin
  {1 index /FID ne {def} {pop pop} ifelse} forall
  /Encoding WinAnsiEncoding def
  currentdict
end
/Times-BoldItalic exch definefont pop
/Courier findfont
dup length dict begin
  {1 index /FID ne {def} {pop pop} ifelse} forall
  /Encoding WinAnsiEncoding def
  currentdict
end
/Courier exch definefont pop
%FOPEndFontReencode
%%EndProlog
%%Page: 1 1
%%PageBoundingBox: 0 0 1025 488
%%BeginPageSetup
[1 0 0 -1 0 488] CT
%%EndPageSetup
GS
[0.75 0 0 0.75 0 -0.25] CT
1 GC
N
0 0 1366 651 re
f
GR
GS
[0.75 0 0 0.75 0 -0.25] CT
1 GC
N
0 0 1366 651 re
f
GR
GS
[0.75 0 0 0.75 0 -0.25] CT
1 GC
N
178 579 M
1236 579 L
1236 49 L
178 49 L
cp
f
GR
GS
[0.75 0 0 0.75 0 -0.25] CT
0.873 GC
1 LJ
0.667 LW
N
178 579 M
178 49 L
S
GR
GS
[0.75 0 0 0.75 0 -0.25] CT
0.873 GC
1 LJ
0.667 LW
N
283.8 579 M
283.8 49 L
S
GR
GS
[0.75 0 0 0.75 0 -0.25] CT
0.873 GC
1 LJ
0.667 LW
N
389.6 579 M
389.6 49 L
S
GR
GS
[0.75 0 0 0.75 0 -0.25] CT
0.873 GC
1 LJ
0.667 LW
N
495.4 579 M
495.4 49 L
S
GR
GS
[0.75 0 0 0.75 0 -0.25] CT
0.873 GC
1 LJ
0.667 LW
N
601.2 579 M
601.2 49 L
S
GR
GS
[0.75 0 0 0.75 0 -0.25] CT
0.873 GC
1 LJ
0.667 LW
N
707 579 M
707 49 L
S
GR
GS
[0.75 0 0 0.75 0 -0.25] CT
0.873 GC
1 LJ
0.667 LW
N
812.8 579 M
812.8 49 L
S
GR
GS
[0.75 0 0 0.75 0 -0.25] CT
0.873 GC
1 LJ
0.667 LW
N
918.6 579 M
918.6 49 L
S
GR
GS
[0.75 0 0 0.75 0 -0.25] CT
0.873 GC
1 LJ
0.667 LW
N
1024.4 579 M
1024.4 49 L
S
GR
GS
[0.75 0 0 0.75 0 -0.25] CT
0.873 GC
1 LJ
0.667 LW
N
1130.2 579 M
1130.2 49 L
S
GR
GS
[0.75 0 0 0.75 0 -0.25] CT
0.873 GC
1 LJ
0.667 LW
N
1236 579 M
1236 49 L
S
GR
GS
[0.75 0 0 0.75 0 -0.25] CT
0.873 GC
1 LJ
0.667 LW
N
1236 579 M
178 579 L
S
GR
GS
[0.75 0 0 0.75 0 -0.25] CT
0.873 GC
1 LJ
0.667 LW
N
1236 503.286 M
178 503.286 L
S
GR
GS
[0.75 0 0 0.75 0 -0.25] CT
0.873 GC
1 LJ
0.667 LW
N
1236 427.571 M
178 427.571 L
S
GR
GS
[0.75 0 0 0.75 0 -0.25] CT
0.873 GC
1 LJ
0.667 LW
N
1236 351.857 M
178 351.857 L
S
GR
GS
[0.75 0 0 0.75 0 -0.25] CT
0.873 GC
1 LJ
0.667 LW
N
1236 276.143 M
178 276.143 L
S
GR
GS
[0.75 0 0 0.75 0 -0.25] CT
0.873 GC
1 LJ
0.667 LW
N
1236 200.429 M
178 200.429 L
S
GR
GS
[0.75 0 0 0.75 0 -0.25] CT
0.873 GC
1 LJ
0.667 LW
N
1236 124.714 M
178 124.714 L
S
GR
GS
[0.75 0 0 0.75 0 -0.25] CT
0.873 GC
1 LJ
0.667 LW
N
1236 49 M
178 49 L
S
GR
GS
[0.75 0 0 0.75 0 -0.25] CT
0.149 GC
2 setlinecap
1 LJ
0.667 LW
N
178 579 M
1236 579 L
S
GR
GS
[0.75 0 0 0.75 0 -0.25] CT
0.149 GC
2 setlinecap
1 LJ
0.667 LW
N
178 49 M
1236 49 L
S
GR
GS
[0.75 0 0 0.75 0 -0.25] CT
0.149 GC
2 setlinecap
1 LJ
0.667 LW
N
178 579 M
178 568.42 L
S
GR
GS
[0.75 0 0 0.75 0 -0.25] CT
0.149 GC
2 setlinecap
1 LJ
0.667 LW
N
283.8 579 M
283.8 568.42 L
S
GR
GS
[0.75 0 0 0.75 0 -0.25] CT
0.149 GC
2 setlinecap
1 LJ
0.667 LW
N
389.6 579 M
389.6 568.42 L
S
GR
GS
[0.75 0 0 0.75 0 -0.25] CT
0.149 GC
2 setlinecap
1 LJ
0.667 LW
N
495.4 579 M
495.4 568.42 L
S
GR
GS
[0.75 0 0 0.75 0 -0.25] CT
0.149 GC
2 setlinecap
1 LJ
0.667 LW
N
601.2 579 M
601.2 568.42 L
S
GR
GS
[0.75 0 0 0.75 0 -0.25] CT
0.149 GC
2 setlinecap
1 LJ
0.667 LW
N
707 579 M
707 568.42 L
S
GR
GS
[0.75 0 0 0.75 0 -0.25] CT
0.149 GC
2 setlinecap
1 LJ
0.667 LW
N
812.8 579 M
812.8 568.42 L
S
GR
GS
[0.75 0 0 0.75 0 -0.25] CT
0.149 GC
2 setlinecap
1 LJ
0.667 LW
N
918.6 579 M
918.6 568.42 L
S
GR
GS
[0.75 0 0 0.75 0 -0.25] CT
0.149 GC
2 setlinecap
1 LJ
0.667 LW
N
1024.4 579 M
1024.4 568.42 L
S
GR
GS
[0.75 0 0 0.75 0 -0.25] CT
0.149 GC
2 setlinecap
1 LJ
0.667 LW
N
1130.2 579 M
1130.2 568.42 L
S
GR
GS
[0.75 0 0 0.75 0 -0.25] CT
0.149 GC
2 setlinecap
1 LJ
0.667 LW
N
1236 579 M
1236 568.42 L
S
GR
GS
[0.75 0 0 0.75 0 -0.25] CT
0.149 GC
2 setlinecap
1 LJ
0.667 LW
N
178 49 M
178 59.58 L
S
GR
GS
[0.75 0 0 0.75 0 -0.25] CT
0.149 GC
2 setlinecap
1 LJ
0.667 LW
N
283.8 49 M
283.8 59.58 L
S
GR
GS
[0.75 0 0 0.75 0 -0.25] CT
0.149 GC
2 setlinecap
1 LJ
0.667 LW
N
389.6 49 M
389.6 59.58 L
S
GR
GS
[0.75 0 0 0.75 0 -0.25] CT
0.149 GC
2 setlinecap
1 LJ
0.667 LW
N
495.4 49 M
495.4 59.58 L
S
GR
GS
[0.75 0 0 0.75 0 -0.25] CT
0.149 GC
2 setlinecap
1 LJ
0.667 LW
N
601.2 49 M
601.2 59.58 L
S
GR
GS
[0.75 0 0 0.75 0 -0.25] CT
0.149 GC
2 setlinecap
1 LJ
0.667 LW
N
707 49 M
707 59.58 L
S
GR
GS
[0.75 0 0 0.75 0 -0.25] CT
0.149 GC
2 setlinecap
1 LJ
0.667 LW
N
812.8 49 M
812.8 59.58 L
S
GR
GS
[0.75 0 0 0.75 0 -0.25] CT
0.149 GC
2 setlinecap
1 LJ
0.667 LW
N
918.6 49 M
918.6 59.58 L
S
GR
GS
[0.75 0 0 0.75 0 -0.25] CT
0.149 GC
2 setlinecap
1 LJ
0.667 LW
N
1024.4 49 M
1024.4 59.58 L
S
GR
GS
[0.75 0 0 0.75 0 -0.25] CT
0.149 GC
2 setlinecap
1 LJ
0.667 LW
N
1130.2 49 M
1130.2 59.58 L
S
GR
GS
[0.75 0 0 0.75 0 -0.25] CT
0.149 GC
2 setlinecap
1 LJ
0.667 LW
N
1236 49 M
1236 59.58 L
S
GR
GS
[0.75 0 0 0.75 133.5 437.99998] CT
0.149 GC
/Helvetica 13.333 F
GS
[1 0 0 1 0 0] CT
-4 14 moveto 
1 -1 scale
(0) t 
GR
GR
GS
[0.75 0 0 0.75 212.84999 437.99998] CT
0.149 GC
/Helvetica 13.333 F
GS
[1 0 0 1 0 0] CT
-4 14 moveto 
1 -1 scale
(1) t 
GR
GR
GS
[0.75 0 0 0.75 292.2 437.99998] CT
0.149 GC
/Helvetica 13.333 F
GS
[1 0 0 1 0 0] CT
-4 14 moveto 
1 -1 scale
(2) t 
GR
GR
GS
[0.75 0 0 0.75 371.55 437.99998] CT
0.149 GC
/Helvetica 13.333 F
GS
[1 0 0 1 0 0] CT
-4 14 moveto 
1 -1 scale
(3) t 
GR
GR
GS
[0.75 0 0 0.75 450.90001 437.99998] CT
0.149 GC
/Helvetica 13.333 F
GS
[1 0 0 1 0 0] CT
-4 14 moveto 
1 -1 scale
(4) t 
GR
GR
GS
[0.75 0 0 0.75 530.25 437.99998] CT
0.149 GC
/Helvetica 13.333 F
GS
[1 0 0 1 0 0] CT
-4 14 moveto 
1 -1 scale
(5) t 
GR
GR
GS
[0.75 0 0 0.75 609.59999 437.99998] CT
0.149 GC
/Helvetica 13.333 F
GS
[1 0 0 1 0 0] CT
-4 14 moveto 
1 -1 scale
(6) t 
GR
GR
GS
[0.75 0 0 0.75 688.94998 437.99998] CT
0.149 GC
/Helvetica 13.333 F
GS
[1 0 0 1 0 0] CT
-4 14 moveto 
1 -1 scale
(7) t 
GR
GR
GS
[0.75 0 0 0.75 768.30002 437.99998] CT
0.149 GC
/Helvetica 13.333 F
GS
[1 0 0 1 0 0] CT
-4 14 moveto 
1 -1 scale
(8) t 
GR
GR
GS
[0.75 0 0 0.75 847.64996 437.99998] CT
0.149 GC
/Helvetica 13.333 F
GS
[1 0 0 1 0 0] CT
-4 14 moveto 
1 -1 scale
(9) t 
GR
GR
GS
[0.75 0 0 0.75 927 437.99998] CT
0.149 GC
/Helvetica 13.333 F
GS
[1 0 0 1 0 0] CT
-7.5 14 moveto 
1 -1 scale
(10) t 
GR
GR
GS
[0.75 0 0 0.75 530.25037 451.75002] CT
0.149 GC
N
-31.963 11.518 M
-31.963 7.096 L
-33.291 7.096 L
-33.291 6.69 L
-32.244 6.69 -31.752 5.713 QT
-31.26 4.737 -31.26 3.596 QT
-30.807 3.596 L
-30.807 6.534 L
-28.541 6.534 L
-28.541 7.096 L
-30.807 7.096 L
-30.807 11.487 L
-30.807 12.143 -30.58 12.643 QT
-30.354 13.143 -29.776 13.143 QT
-29.229 13.143 -28.987 12.62 QT
-28.744 12.096 -28.744 11.487 QT
-28.744 10.534 L
-28.291 10.534 L
-28.291 11.518 L
-28.291 12.018 -28.471 12.502 QT
-28.651 12.987 -29.01 13.307 QT
-29.369 13.627 -29.885 13.627 QT
-30.854 13.627 -31.408 13.049 QT
-31.963 12.471 -31.963 11.518 QT
cp
f
GR
GS
[0.75 0 0 0.75 530.25037 451.75002] CT
0.149 GC
N
-26.882 13.44 M
-26.882 12.877 L
-26.335 12.877 -25.983 12.792 QT
-25.632 12.706 -25.632 12.362 QT
-25.632 8.002 L
-25.632 7.377 -25.874 7.237 QT
-26.116 7.096 -26.819 7.096 QT
-26.819 6.534 L
-24.507 6.362 L
-24.507 12.362 L
-24.507 12.706 -24.202 12.792 QT
-23.897 12.877 -23.397 12.877 QT
-23.397 13.44 L
-26.882 13.44 L
cp
-26.21 3.612 M
-26.21 3.268 -25.944 3.002 QT
-25.678 2.737 -25.335 2.737 QT
-25.1 2.737 -24.889 2.854 QT
-24.678 2.971 -24.561 3.182 QT
-24.444 3.393 -24.444 3.612 QT
-24.444 3.956 -24.71 4.221 QT
-24.975 4.487 -25.335 4.487 QT
-25.678 4.487 -25.944 4.221 QT
-26.21 3.956 -26.21 3.612 QT
cp
f
GR
GS
[0.75 0 0 0.75 530.25037 451.75002] CT
0.149 GC
N
-22.453 13.44 M
-22.453 12.877 L
-21.906 12.877 -21.554 12.792 QT
-21.203 12.706 -21.203 12.362 QT
-21.203 8.002 L
-21.203 7.565 -21.336 7.377 QT
-21.468 7.19 -21.711 7.143 QT
-21.953 7.096 -22.453 7.096 QT
-22.453 6.534 L
-20.14 6.362 L
-20.14 7.924 L
-19.812 7.237 -19.187 6.799 QT
-18.562 6.362 -17.812 6.362 QT
-15.968 6.362 -15.656 7.862 QT
-15.328 7.19 -14.711 6.776 QT
-14.093 6.362 -13.359 6.362 QT
-12.64 6.362 -12.14 6.596 QT
-11.64 6.831 -11.39 7.315 QT
-11.14 7.799 -11.14 8.518 QT
-11.14 12.362 L
-11.14 12.706 -10.789 12.792 QT
-10.437 12.877 -9.89 12.877 QT
-9.89 13.44 L
-13.562 13.44 L
-13.562 12.877 L
-13.015 12.877 -12.664 12.792 QT
-12.312 12.706 -12.312 12.362 QT
-12.312 8.565 L
-12.312 7.768 -12.539 7.276 QT
-12.765 6.784 -13.468 6.784 QT
-14.39 6.784 -14.992 7.526 QT
-15.593 8.268 -15.593 9.206 QT
-15.593 12.362 L
-15.593 12.706 -15.242 12.792 QT
-14.89 12.877 -14.343 12.877 QT
-14.343 13.44 L
-18 13.44 L
-18 12.877 L
-17.453 12.877 -17.101 12.792 QT
-16.75 12.706 -16.75 12.362 QT
-16.75 8.565 L
-16.75 7.784 -16.976 7.284 QT
-17.203 6.784 -17.906 6.784 QT
-18.843 6.784 -19.437 7.526 QT
-20.031 8.268 -20.031 9.206 QT
-20.031 12.362 L
-20.031 12.706 -19.679 12.792 QT
-19.328 12.877 -18.796 12.877 QT
-18.796 13.44 L
-22.453 13.44 L
cp
f
GR
GS
[0.75 0 0 0.75 530.25037 451.75002] CT
0.149 GC
N
-5.619 13.627 M
-6.588 13.627 -7.408 13.112 QT
-8.229 12.596 -8.69 11.737 QT
-9.151 10.877 -9.151 9.924 QT
-9.151 8.987 -8.729 8.143 QT
-8.307 7.299 -7.541 6.784 QT
-6.776 6.268 -5.838 6.268 QT
-5.104 6.268 -4.565 6.51 QT
-4.026 6.752 -3.674 7.19 QT
-3.322 7.627 -3.143 8.221 QT
-2.963 8.815 -2.963 9.534 QT
-2.963 9.737 -3.119 9.737 QT
-7.76 9.737 L
-7.76 9.909 L
-7.76 11.237 -7.221 12.19 QT
-6.682 13.143 -5.479 13.143 QT
-4.979 13.143 -4.565 12.924 QT
-4.151 12.706 -3.838 12.315 QT
-3.526 11.924 -3.416 11.487 QT
-3.401 11.424 -3.361 11.385 QT
-3.322 11.346 -3.26 11.346 QT
-3.119 11.346 L
-2.963 11.346 -2.963 11.549 QT
-3.182 12.456 -3.932 13.042 QT
-4.682 13.627 -5.619 13.627 QT
cp
-7.744 9.346 M
-4.088 9.346 L
-4.088 8.737 -4.26 8.12 QT
-4.432 7.502 -4.822 7.096 QT
-5.213 6.69 -5.838 6.69 QT
-6.744 6.69 -7.244 7.534 QT
-7.744 8.377 -7.744 9.346 QT
cp
f
GR
GS
[0.75 0 0 0.75 530.25037 451.75002] CT
0.149 GC
N
4.731 17.44 M
4.731 1.44 L
6.919 1.44 L
6.919 2.081 L
5.372 2.081 L
5.372 16.799 L
6.919 16.799 L
6.919 17.44 L
4.731 17.44 L
cp
f
GR
GS
[0.75 0 0 0.75 530.25037 451.75002] CT
0.149 GC
N
8.676 12.456 M
9.113 13.19 10.41 13.19 QT
10.973 13.19 11.481 13.002 QT
11.988 12.815 12.316 12.432 QT
12.645 12.049 12.645 11.502 QT
12.645 11.081 12.348 10.815 QT
12.051 10.549 11.629 10.456 QT
10.754 10.284 L
10.16 10.143 9.777 9.737 QT
9.395 9.331 9.395 8.752 QT
9.395 8.034 9.785 7.487 QT
10.176 6.94 10.809 6.651 QT
11.441 6.362 12.113 6.362 QT
12.848 6.362 13.418 6.713 QT
13.988 7.065 13.988 7.737 QT
13.988 8.112 13.785 8.393 QT
13.582 8.674 13.207 8.674 QT
13.004 8.674 12.848 8.534 QT
12.691 8.393 12.691 8.19 QT
12.691 8.002 12.801 7.823 QT
12.91 7.643 13.082 7.542 QT
13.254 7.44 13.441 7.44 QT
13.301 7.096 12.918 6.94 QT
12.535 6.784 12.082 6.784 QT
11.676 6.784 11.27 6.948 QT
10.863 7.112 10.621 7.424 QT
10.379 7.737 10.379 8.174 QT
10.379 8.456 10.582 8.674 QT
10.785 8.893 11.082 8.987 QT
12.004 9.174 L
12.457 9.268 12.824 9.51 QT
13.191 9.752 13.41 10.112 QT
13.629 10.471 13.629 10.94 QT
13.629 11.534 13.293 12.112 QT
12.957 12.69 12.473 13.034 QT
11.629 13.627 10.395 13.627 QT
9.535 13.627 8.824 13.229 QT
8.113 12.831 8.113 12.065 QT
8.113 11.627 8.371 11.299 QT
8.629 10.971 9.066 10.971 QT
9.316 10.971 9.496 11.127 QT
9.676 11.284 9.676 11.549 QT
9.676 11.909 9.402 12.182 QT
9.129 12.456 8.754 12.456 QT
8.676 12.456 L
cp
f
GR
GS
[0.75 0 0 0.75 530.25037 451.75002] CT
0.149 GC
N
18.004 13.627 M
17.238 13.627 16.668 13.221 QT
16.098 12.815 15.793 12.143 QT
15.488 11.471 15.488 10.721 QT
15.488 9.581 16.066 8.573 QT
16.645 7.565 17.629 6.963 QT
18.613 6.362 19.738 6.362 QT
20.426 6.362 20.934 6.721 QT
21.441 7.081 21.441 7.737 QT
21.441 8.659 20.707 9.112 QT
19.973 9.565 19.051 9.667 QT
18.129 9.768 17.02 9.768 QT
16.973 9.768 L
16.707 10.721 16.707 11.409 QT
16.707 12.112 17.035 12.651 QT
17.363 13.19 18.035 13.19 QT
18.988 13.19 19.871 12.752 QT
20.754 12.315 21.301 11.549 QT
21.348 11.502 21.426 11.502 QT
21.504 11.502 21.59 11.588 QT
21.676 11.674 21.676 11.752 QT
21.676 11.815 21.645 11.846 QT
21.051 12.674 20.059 13.151 QT
19.066 13.627 18.004 13.627 QT
cp
17.066 9.362 M
17.988 9.362 18.777 9.276 QT
19.566 9.19 20.207 8.838 QT
20.848 8.487 20.848 7.752 QT
20.848 7.456 20.684 7.237 QT
20.52 7.018 20.262 6.901 QT
20.004 6.784 19.723 6.784 QT
19.035 6.784 18.496 7.151 QT
17.957 7.518 17.606 8.104 QT
17.254 8.69 17.066 9.362 QT
cp
f
GR
GS
[0.75 0 0 0.75 530.25037 451.75002] CT
0.149 GC
N
24.11 11.534 M
24.11 12.221 24.47 12.706 QT
24.829 13.19 25.485 13.19 QT
26.438 13.19 27.321 12.752 QT
28.204 12.315 28.751 11.549 QT
28.798 11.502 28.876 11.502 QT
28.954 11.502 29.04 11.588 QT
29.126 11.674 29.126 11.752 QT
29.126 11.815 29.095 11.846 QT
28.501 12.674 27.509 13.151 QT
26.516 13.627 25.454 13.627 QT
24.688 13.627 24.102 13.26 QT
23.516 12.893 23.196 12.284 QT
22.876 11.674 22.876 10.909 QT
22.876 9.831 23.477 8.768 QT
24.079 7.706 25.079 7.034 QT
26.079 6.362 27.188 6.362 QT
27.907 6.362 28.477 6.713 QT
29.048 7.065 29.048 7.737 QT
29.048 8.174 28.798 8.487 QT
28.548 8.799 28.11 8.799 QT
27.86 8.799 27.681 8.635 QT
27.501 8.471 27.501 8.221 QT
27.501 7.846 27.774 7.581 QT
28.048 7.315 28.423 7.315 QT
28.454 7.315 L
28.266 7.034 27.907 6.909 QT
27.548 6.784 27.173 6.784 QT
26.235 6.784 25.532 7.581 QT
24.829 8.377 24.47 9.495 QT
24.11 10.612 24.11 11.534 QT
cp
f
GR
GS
[0.75 0 0 0.75 530.25037 451.75002] CT
0.149 GC
N
29.519 17.44 M
29.519 16.799 L
31.066 16.799 L
31.066 2.081 L
29.519 2.081 L
29.519 1.44 L
31.706 1.44 L
31.706 17.44 L
29.519 17.44 L
cp
f
GR
GS
[0.75 0 0 0.75 0 -0.25] CT
0.149 GC
2 setlinecap
1 LJ
0.667 LW
N
178 579 M
178 49 L
S
GR
GS
[0.75 0 0 0.75 0 -0.25] CT
0.149 GC
2 setlinecap
1 LJ
0.667 LW
N
1236 579 M
1236 49 L
S
GR
GS
[0.75 0 0 0.75 0 -0.25] CT
0.149 GC
2 setlinecap
1 LJ
0.667 LW
N
178 579 M
188.58 579 L
S
GR
GS
[0.75 0 0 0.75 0 -0.25] CT
0.149 GC
2 setlinecap
1 LJ
0.667 LW
N
178 503.286 M
188.58 503.286 L
S
GR
GS
[0.75 0 0 0.75 0 -0.25] CT
0.149 GC
2 setlinecap
1 LJ
0.667 LW
N
178 427.571 M
188.58 427.571 L
S
GR
GS
[0.75 0 0 0.75 0 -0.25] CT
0.149 GC
2 setlinecap
1 LJ
0.667 LW
N
178 351.857 M
188.58 351.857 L
S
GR
GS
[0.75 0 0 0.75 0 -0.25] CT
0.149 GC
2 setlinecap
1 LJ
0.667 LW
N
178 276.143 M
188.58 276.143 L
S
GR
GS
[0.75 0 0 0.75 0 -0.25] CT
0.149 GC
2 setlinecap
1 LJ
0.667 LW
N
178 200.429 M
188.58 200.429 L
S
GR
GS
[0.75 0 0 0.75 0 -0.25] CT
0.149 GC
2 setlinecap
1 LJ
0.667 LW
N
178 124.714 M
188.58 124.714 L
S
GR
GS
[0.75 0 0 0.75 0 -0.25] CT
0.149 GC
2 setlinecap
1 LJ
0.667 LW
N
178 49 M
188.58 49 L
S
GR
GS
[0.75 0 0 0.75 0 -0.25] CT
0.149 GC
2 setlinecap
1 LJ
0.667 LW
N
1236 579 M
1225.42 579 L
S
GR
GS
[0.75 0 0 0.75 0 -0.25] CT
0.149 GC
2 setlinecap
1 LJ
0.667 LW
N
1236 503.286 M
1225.42 503.286 L
S
GR
GS
[0.75 0 0 0.75 0 -0.25] CT
0.149 GC
2 setlinecap
1 LJ
0.667 LW
N
1236 427.571 M
1225.42 427.571 L
S
GR
GS
[0.75 0 0 0.75 0 -0.25] CT
0.149 GC
2 setlinecap
1 LJ
0.667 LW
N
1236 351.857 M
1225.42 351.857 L
S
GR
GS
[0.75 0 0 0.75 0 -0.25] CT
0.149 GC
2 setlinecap
1 LJ
0.667 LW
N
1236 276.143 M
1225.42 276.143 L
S
GR
GS
[0.75 0 0 0.75 0 -0.25] CT
0.149 GC
2 setlinecap
1 LJ
0.667 LW
N
1236 200.429 M
1225.42 200.429 L
S
GR
GS
[0.75 0 0 0.75 0 -0.25] CT
0.149 GC
2 setlinecap
1 LJ
0.667 LW
N
1236 124.714 M
1225.42 124.714 L
S
GR
GS
[0.75 0 0 0.75 0 -0.25] CT
0.149 GC
2 setlinecap
1 LJ
0.667 LW
N
1236 49 M
1225.42 49 L
S
GR
GS
[0.75 0 0 0.75 129.5 434] CT
0.149 GC
/Helvetica 13.333 F
GS
[1 0 0 1 0 0] CT
-8 5.5 moveto 
1 -1 scale
(0) t 
GR
GR
GS
[0.75 0 0 0.75 129.5 377.21428] CT
0.149 GC
/Helvetica 13.333 F
GS
[1 0 0 1 0 0] CT
-8 5.5 moveto 
1 -1 scale
(1) t 
GR
GR
GS
[0.75 0 0 0.75 129.5 320.42858] CT
0.149 GC
/Helvetica 13.333 F
GS
[1 0 0 1 0 0] CT
-8 5.5 moveto 
1 -1 scale
(2) t 
GR
GR
GS
[0.75 0 0 0.75 129.5 263.64286] CT
0.149 GC
/Helvetica 13.333 F
GS
[1 0 0 1 0 0] CT
-8 5.5 moveto 
1 -1 scale
(3) t 
GR
GR
GS
[0.75 0 0 0.75 129.5 206.85714] CT
0.149 GC
/Helvetica 13.333 F
GS
[1 0 0 1 0 0] CT
-8 5.5 moveto 
1 -1 scale
(4) t 
GR
GR
GS
[0.75 0 0 0.75 129.5 150.07143] CT
0.149 GC
/Helvetica 13.333 F
GS
[1 0 0 1 0 0] CT
-8 5.5 moveto 
1 -1 scale
(5) t 
GR
GR
GS
[0.75 0 0 0.75 129.5 93.28572] CT
0.149 GC
/Helvetica 13.333 F
GS
[1 0 0 1 0 0] CT
-8 5.5 moveto 
1 -1 scale
(6) t 
GR
GR
GS
[0.75 0 0 0.75 129.5 36.5] CT
0.149 GC
/Helvetica 13.333 F
GS
[1 0 0 1 0 0] CT
-8 5.5 moveto 
1 -1 scale
(7) t 
GR
GR
GS
[0.75 0 0 0.75 530.2505 33.125] CT
N
-162.731 -8.296 M
-162.731 -13.906 L
-162.731 -14.093 -162.512 -14.093 QT
-162.216 -14.093 L
-162.153 -14.093 -162.091 -14.031 QT
-162.028 -13.968 -162.028 -13.906 QT
-162.028 -11.546 -160.575 -10.249 QT
-159.122 -8.953 -156.747 -8.953 QT
-155.919 -8.953 -155.216 -9.437 QT
-154.512 -9.921 -154.122 -10.703 QT
-153.731 -11.484 -153.731 -12.312 QT
-153.731 -13.031 -154.02 -13.718 QT
-154.309 -14.406 -154.864 -14.914 QT
-155.419 -15.421 -156.106 -15.578 QT
-159.216 -16.343 L
-160.762 -16.749 -161.747 -18.023 QT
-162.731 -19.296 -162.731 -20.874 QT
-162.731 -22.124 -162.098 -23.21 QT
-161.466 -24.296 -160.387 -24.929 QT
-159.309 -25.562 -158.075 -25.562 QT
-155.669 -25.562 -154.247 -23.937 QT
-153.262 -25.499 L
-153.2 -25.562 -153.106 -25.562 QT
-152.934 -25.562 L
-152.872 -25.562 -152.809 -25.507 QT
-152.747 -25.453 -152.747 -25.359 QT
-152.747 -19.796 L
-152.747 -19.593 -152.934 -19.593 QT
-153.216 -19.593 L
-153.45 -19.593 -153.45 -19.796 QT
-153.45 -20.406 -153.653 -21.132 QT
-153.856 -21.859 -154.216 -22.531 QT
-154.575 -23.203 -154.997 -23.624 QT
-156.169 -24.796 -158.075 -24.796 QT
-158.887 -24.796 -159.583 -24.374 QT
-160.278 -23.953 -160.684 -23.242 QT
-161.091 -22.531 -161.091 -21.749 QT
-161.091 -20.718 -160.458 -19.874 QT
-159.825 -19.031 -158.794 -18.765 QT
-155.669 -17.999 L
-154.903 -17.812 -154.216 -17.328 QT
-153.528 -16.843 -153.067 -16.203 QT
-152.606 -15.562 -152.348 -14.765 QT
-152.091 -13.968 -152.091 -13.124 QT
-152.091 -11.828 -152.692 -10.671 QT
-153.294 -9.515 -154.38 -8.812 QT
-155.466 -8.109 -156.747 -8.109 QT
-157.544 -8.109 -158.38 -8.289 QT
-159.216 -8.468 -159.919 -8.828 QT
-160.622 -9.187 -161.184 -9.765 QT
-162.2 -8.187 L
-162.262 -8.109 -162.372 -8.109 QT
-162.512 -8.109 L
-162.731 -8.109 -162.731 -8.296 QT
cp
f
GR
GS
[0.75 0 0 0.75 530.2505 33.125] CT
N
-149.085 -4.703 M
-148.632 -4.343 -148.085 -4.343 QT
-146.57 -4.343 -145.601 -6.624 QT
-144.788 -8.64 L
-148.382 -17.453 L
-148.601 -17.906 -149.062 -18.023 QT
-149.523 -18.14 -150.288 -18.14 QT
-150.288 -18.984 L
-145.242 -18.984 L
-145.242 -18.14 L
-146.57 -18.14 -146.57 -17.578 QT
-146.57 -17.484 -146.538 -17.437 QT
-143.867 -10.874 L
-141.476 -16.781 L
-141.398 -16.968 -141.398 -17.187 QT
-141.398 -17.484 -141.554 -17.695 QT
-141.71 -17.906 -141.968 -18.023 QT
-142.226 -18.14 -142.538 -18.14 QT
-142.538 -18.984 L
-138.554 -18.984 L
-138.554 -18.14 L
-139.288 -18.14 -139.843 -17.804 QT
-140.398 -17.468 -140.71 -16.796 QT
-144.851 -6.624 L
-145.179 -5.843 -145.624 -5.195 QT
-146.07 -4.546 -146.703 -4.132 QT
-147.335 -3.718 -148.085 -3.718 QT
-148.96 -3.718 -149.624 -4.296 QT
-150.288 -4.874 -150.288 -5.734 QT
-150.288 -6.171 -149.984 -6.476 QT
-149.679 -6.781 -149.226 -6.781 QT
-148.929 -6.781 -148.687 -6.648 QT
-148.445 -6.515 -148.312 -6.281 QT
-148.179 -6.046 -148.179 -5.734 QT
-148.179 -5.343 -148.437 -5.039 QT
-148.695 -4.734 -149.085 -4.703 QT
cp
f
GR
GS
[0.75 0 0 0.75 530.2505 33.125] CT
N
-137.278 -8.562 M
-137.278 -12.484 L
-137.278 -12.671 -137.059 -12.671 QT
-136.778 -12.671 L
-136.637 -12.671 -136.59 -12.484 QT
-135.919 -8.999 -133.356 -8.999 QT
-132.215 -8.999 -131.45 -9.515 QT
-130.684 -10.031 -130.684 -11.109 QT
-130.684 -11.89 -131.278 -12.437 QT
-131.872 -12.984 -132.7 -13.171 QT
-134.294 -13.499 L
-135.106 -13.671 -135.77 -14.031 QT
-136.434 -14.39 -136.856 -14.999 QT
-137.278 -15.609 -137.278 -16.406 QT
-137.278 -17.453 -136.723 -18.124 QT
-136.169 -18.796 -135.278 -19.101 QT
-134.387 -19.406 -133.356 -19.406 QT
-132.122 -19.406 -131.2 -18.749 QT
-130.512 -19.343 L
-130.512 -19.406 -130.403 -19.406 QT
-130.215 -19.406 L
-130.153 -19.406 -130.09 -19.335 QT
-130.028 -19.265 -130.028 -19.203 QT
-130.028 -16.062 L
-130.028 -15.843 -130.215 -15.843 QT
-130.512 -15.843 L
-130.731 -15.843 -130.731 -16.062 QT
-130.731 -17.312 -131.426 -18.078 QT
-132.122 -18.843 -133.372 -18.843 QT
-134.45 -18.843 -135.239 -18.445 QT
-136.028 -18.046 -136.028 -17.062 QT
-136.028 -16.406 -135.465 -15.976 QT
-134.903 -15.546 -134.137 -15.359 QT
-132.512 -15.046 L
-131.684 -14.859 -130.973 -14.414 QT
-130.262 -13.968 -129.848 -13.289 QT
-129.434 -12.609 -129.434 -11.765 QT
-129.434 -10.89 -129.731 -10.249 QT
-130.028 -9.609 -130.567 -9.187 QT
-131.106 -8.765 -131.833 -8.57 QT
-132.559 -8.374 -133.356 -8.374 QT
-134.856 -8.374 -135.919 -9.374 QT
-136.794 -8.421 L
-136.794 -8.374 -136.919 -8.374 QT
-137.059 -8.374 L
-137.278 -8.374 -137.278 -8.562 QT
cp
f
GR
GS
[0.75 0 0 0.75 530.2505 33.125] CT
N
-126.155 -11.531 M
-126.155 -18.14 L
-128.155 -18.14 L
-128.155 -18.765 L
-126.577 -18.765 -125.843 -20.234 QT
-125.108 -21.703 -125.108 -23.406 QT
-124.405 -23.406 L
-124.405 -18.984 L
-121.03 -18.984 L
-121.03 -18.14 L
-124.405 -18.14 L
-124.405 -11.578 L
-124.405 -10.578 -124.077 -9.828 QT
-123.749 -9.078 -122.874 -9.078 QT
-122.061 -9.078 -121.694 -9.867 QT
-121.327 -10.656 -121.327 -11.578 QT
-121.327 -12.984 L
-120.639 -12.984 L
-120.639 -11.531 L
-120.639 -10.781 -120.913 -10.046 QT
-121.186 -9.312 -121.725 -8.843 QT
-122.264 -8.374 -123.046 -8.374 QT
-124.483 -8.374 -125.319 -9.234 QT
-126.155 -10.093 -126.155 -11.531 QT
cp
f
GR
GS
[0.75 0 0 0.75 530.2505 33.125] CT
N
-113.29 -8.374 M
-114.759 -8.374 -115.986 -9.14 QT
-117.212 -9.906 -117.908 -11.187 QT
-118.603 -12.468 -118.603 -13.906 QT
-118.603 -15.312 -117.962 -16.578 QT
-117.322 -17.843 -116.181 -18.624 QT
-115.04 -19.406 -113.634 -19.406 QT
-112.54 -19.406 -111.72 -19.031 QT
-110.9 -18.656 -110.376 -17.999 QT
-109.853 -17.343 -109.58 -16.453 QT
-109.306 -15.562 -109.306 -14.499 QT
-109.306 -14.187 -109.556 -14.187 QT
-116.509 -14.187 L
-116.509 -13.921 L
-116.509 -11.937 -115.705 -10.507 QT
-114.9 -9.078 -113.087 -9.078 QT
-112.353 -9.078 -111.72 -9.406 QT
-111.087 -9.734 -110.626 -10.32 QT
-110.165 -10.906 -110.009 -11.578 QT
-109.978 -11.656 -109.915 -11.718 QT
-109.853 -11.781 -109.775 -11.781 QT
-109.556 -11.781 L
-109.306 -11.781 -109.306 -11.484 QT
-109.65 -10.124 -110.775 -9.249 QT
-111.9 -8.374 -113.29 -8.374 QT
cp
-116.478 -14.781 M
-111.009 -14.781 L
-111.009 -15.687 -111.259 -16.609 QT
-111.509 -17.531 -112.095 -18.148 QT
-112.681 -18.765 -113.634 -18.765 QT
-114.994 -18.765 -115.736 -17.492 QT
-116.478 -16.218 -116.478 -14.781 QT
cp
f
GR
GS
[0.75 0 0 0.75 530.2505 33.125] CT
N
-107.889 -8.64 M
-107.889 -9.484 L
-107.077 -9.484 -106.546 -9.617 QT
-106.014 -9.749 -106.014 -10.249 QT
-106.014 -16.796 L
-106.014 -17.437 -106.21 -17.726 QT
-106.405 -18.015 -106.764 -18.078 QT
-107.124 -18.14 -107.889 -18.14 QT
-107.889 -18.984 L
-104.405 -19.249 L
-104.405 -16.906 L
-103.936 -17.937 -102.991 -18.593 QT
-102.046 -19.249 -100.936 -19.249 QT
-98.171 -19.249 -97.686 -16.999 QT
-97.202 -17.999 -96.28 -18.624 QT
-95.358 -19.249 -94.249 -19.249 QT
-93.155 -19.249 -92.413 -18.898 QT
-91.671 -18.546 -91.296 -17.828 QT
-90.921 -17.109 -90.921 -16.015 QT
-90.921 -10.249 L
-90.921 -9.749 -90.389 -9.617 QT
-89.858 -9.484 -89.046 -9.484 QT
-89.046 -8.64 L
-94.546 -8.64 L
-94.546 -9.484 L
-93.718 -9.484 -93.194 -9.617 QT
-92.671 -9.749 -92.671 -10.249 QT
-92.671 -15.937 L
-92.671 -17.156 -93.007 -17.89 QT
-93.343 -18.624 -94.405 -18.624 QT
-95.78 -18.624 -96.686 -17.515 QT
-97.593 -16.406 -97.593 -14.984 QT
-97.593 -10.249 L
-97.593 -9.749 -97.061 -9.617 QT
-96.53 -9.484 -95.718 -9.484 QT
-95.718 -8.64 L
-101.218 -8.64 L
-101.218 -9.484 L
-100.389 -9.484 -99.866 -9.617 QT
-99.343 -9.749 -99.343 -10.249 QT
-99.343 -15.937 L
-99.343 -17.109 -99.678 -17.867 QT
-100.014 -18.624 -101.077 -18.624 QT
-102.468 -18.624 -103.366 -17.515 QT
-104.264 -16.406 -104.264 -14.984 QT
-104.264 -10.249 L
-104.264 -9.749 -103.733 -9.617 QT
-103.202 -9.484 -102.389 -9.484 QT
-102.389 -8.64 L
-107.889 -8.64 L
cp
f
GR
GS
[0.75 0 0 0.75 530.2505 33.125] CT
N
-74.608 -8.374 M
-76.046 -8.374 -77.28 -9.109 QT
-78.514 -9.843 -79.225 -11.07 QT
-79.936 -12.296 -79.936 -13.749 QT
-79.936 -14.859 -79.546 -15.874 QT
-79.155 -16.89 -78.421 -17.695 QT
-77.686 -18.499 -76.717 -18.953 QT
-75.749 -19.406 -74.608 -19.406 QT
-73.124 -19.406 -71.913 -18.624 QT
-70.702 -17.843 -69.999 -16.539 QT
-69.296 -15.234 -69.296 -13.749 QT
-69.296 -12.312 -70.014 -11.078 QT
-70.733 -9.843 -71.952 -9.109 QT
-73.171 -8.374 -74.608 -8.374 QT
cp
-74.608 -9.078 M
-72.686 -9.078 -72.038 -10.468 QT
-71.389 -11.859 -71.389 -14.015 QT
-71.389 -15.234 -71.522 -16.023 QT
-71.655 -16.812 -72.092 -17.453 QT
-72.358 -17.859 -72.772 -18.156 QT
-73.186 -18.453 -73.647 -18.609 QT
-74.108 -18.765 -74.608 -18.765 QT
-75.358 -18.765 -76.03 -18.429 QT
-76.702 -18.093 -77.155 -17.453 QT
-77.592 -16.781 -77.717 -15.96 QT
-77.842 -15.14 -77.842 -14.015 QT
-77.842 -12.671 -77.608 -11.601 QT
-77.374 -10.531 -76.663 -9.804 QT
-75.952 -9.078 -74.608 -9.078 QT
cp
f
GR
GS
[0.75 0 0 0.75 530.2505 33.125] CT
N
-66.014 -11.499 M
-66.014 -16.796 L
-66.014 -17.437 -66.21 -17.726 QT
-66.405 -18.015 -66.764 -18.078 QT
-67.124 -18.14 -67.889 -18.14 QT
-67.889 -18.984 L
-64.264 -19.249 L
-64.264 -11.499 L
-64.264 -10.562 -64.124 -10.039 QT
-63.983 -9.515 -63.546 -9.257 QT
-63.108 -8.999 -62.155 -8.999 QT
-60.858 -8.999 -60.1 -10.078 QT
-59.342 -11.156 -59.342 -12.531 QT
-59.342 -16.796 L
-59.342 -17.437 -59.538 -17.726 QT
-59.733 -18.015 -60.092 -18.078 QT
-60.452 -18.14 -61.217 -18.14 QT
-61.217 -18.984 L
-57.592 -19.249 L
-57.592 -10.828 L
-57.592 -10.187 -57.397 -9.898 QT
-57.202 -9.609 -56.842 -9.546 QT
-56.483 -9.484 -55.717 -9.484 QT
-55.717 -8.64 L
-59.264 -8.374 L
-59.264 -10.406 L
-59.717 -9.499 -60.514 -8.937 QT
-61.311 -8.374 -62.264 -8.374 QT
-63.983 -8.374 -64.999 -9.109 QT
-66.014 -9.843 -66.014 -11.499 QT
cp
f
GR
GS
[0.75 0 0 0.75 530.2505 33.125] CT
N
-52.822 -11.531 M
-52.822 -18.14 L
-54.822 -18.14 L
-54.822 -18.765 L
-53.243 -18.765 -52.509 -20.234 QT
-51.775 -21.703 -51.775 -23.406 QT
-51.072 -23.406 L
-51.072 -18.984 L
-47.697 -18.984 L
-47.697 -18.14 L
-51.072 -18.14 L
-51.072 -11.578 L
-51.072 -10.578 -50.743 -9.828 QT
-50.415 -9.078 -49.54 -9.078 QT
-48.728 -9.078 -48.361 -9.867 QT
-47.993 -10.656 -47.993 -11.578 QT
-47.993 -12.984 L
-47.306 -12.984 L
-47.306 -11.531 L
-47.306 -10.781 -47.579 -10.046 QT
-47.853 -9.312 -48.392 -8.843 QT
-48.931 -8.374 -49.712 -8.374 QT
-51.15 -8.374 -51.986 -9.234 QT
-52.822 -10.093 -52.822 -11.531 QT
cp
f
GR
GS
[0.75 0 0 0.75 530.2505 33.125] CT
N
-45.316 -3.984 M
-45.316 -4.812 L
-44.504 -4.812 -43.973 -4.953 QT
-43.441 -5.093 -43.441 -5.593 QT
-43.441 -17.156 L
-43.441 -17.812 -43.91 -17.976 QT
-44.379 -18.14 -45.316 -18.14 QT
-45.316 -18.984 L
-41.769 -19.249 L
-41.769 -17.765 L
-41.113 -18.484 -40.238 -18.867 QT
-39.363 -19.249 -38.379 -19.249 QT
-36.957 -19.249 -35.824 -18.484 QT
-34.691 -17.718 -34.051 -16.468 QT
-33.41 -15.218 -33.41 -13.828 QT
-33.41 -12.374 -34.121 -11.117 QT
-34.832 -9.859 -36.059 -9.117 QT
-37.285 -8.374 -38.738 -8.374 QT
-40.488 -8.374 -41.691 -9.796 QT
-41.691 -5.593 L
-41.691 -5.093 -41.16 -4.953 QT
-40.629 -4.812 -39.816 -4.812 QT
-39.816 -3.984 L
-45.316 -3.984 L
cp
-41.691 -10.968 M
-41.269 -10.124 -40.519 -9.562 QT
-39.769 -8.999 -38.879 -8.999 QT
-38.051 -8.999 -37.41 -9.445 QT
-36.769 -9.89 -36.34 -10.64 QT
-35.91 -11.39 -35.707 -12.218 QT
-35.504 -13.046 -35.504 -13.828 QT
-35.504 -14.781 -35.848 -15.898 QT
-36.191 -17.015 -36.902 -17.789 QT
-37.613 -18.562 -38.613 -18.562 QT
-39.582 -18.562 -40.402 -18.062 QT
-41.223 -17.562 -41.691 -16.703 QT
-41.691 -10.968 L
cp
f
GR
GS
[0.75 0 0 0.75 530.2505 33.125] CT
N
-30.014 -11.499 M
-30.014 -16.796 L
-30.014 -17.437 -30.21 -17.726 QT
-30.405 -18.015 -30.764 -18.078 QT
-31.124 -18.14 -31.889 -18.14 QT
-31.889 -18.984 L
-28.264 -19.249 L
-28.264 -11.499 L
-28.264 -10.562 -28.124 -10.039 QT
-27.983 -9.515 -27.545 -9.257 QT
-27.108 -8.999 -26.155 -8.999 QT
-24.858 -8.999 -24.1 -10.078 QT
-23.342 -11.156 -23.342 -12.531 QT
-23.342 -16.796 L
-23.342 -17.437 -23.538 -17.726 QT
-23.733 -18.015 -24.092 -18.078 QT
-24.452 -18.14 -25.217 -18.14 QT
-25.217 -18.984 L
-21.592 -19.249 L
-21.592 -10.828 L
-21.592 -10.187 -21.397 -9.898 QT
-21.202 -9.609 -20.842 -9.546 QT
-20.483 -9.484 -19.717 -9.484 QT
-19.717 -8.64 L
-23.264 -8.374 L
-23.264 -10.406 L
-23.717 -9.499 -24.514 -8.937 QT
-25.311 -8.374 -26.264 -8.374 QT
-27.983 -8.374 -28.999 -9.109 QT
-30.014 -9.843 -30.014 -11.499 QT
cp
f
GR
GS
[0.75 0 0 0.75 530.2505 33.125] CT
N
-16.821 -11.531 M
-16.821 -18.14 L
-18.821 -18.14 L
-18.821 -18.765 L
-17.243 -18.765 -16.509 -20.234 QT
-15.775 -21.703 -15.775 -23.406 QT
-15.071 -23.406 L
-15.071 -18.984 L
-11.696 -18.984 L
-11.696 -18.14 L
-15.071 -18.14 L
-15.071 -11.578 L
-15.071 -10.578 -14.743 -9.828 QT
-14.415 -9.078 -13.54 -9.078 QT
-12.728 -9.078 -12.361 -9.867 QT
-11.993 -10.656 -11.993 -11.578 QT
-11.993 -12.984 L
-11.306 -12.984 L
-11.306 -11.531 L
-11.306 -10.781 -11.579 -10.046 QT
-11.853 -9.312 -12.392 -8.843 QT
-12.931 -8.374 -13.712 -8.374 QT
-15.15 -8.374 -15.986 -9.234 QT
-16.821 -10.093 -16.821 -11.531 QT
cp
f
GR
GS
[0.75 0 0 0.75 530.2505 33.125] CT
N
-2.535 -3.984 M
-2.769 -3.984 -2.769 -4.296 QT
-2.676 -4.812 -2.441 -4.812 QT
-1.691 -4.812 -1.394 -4.953 QT
-1.097 -5.093 -0.926 -5.64 QT
1.778 -16.453 L
1.949 -16.89 1.949 -17.593 QT
1.949 -18.624 1.246 -18.624 QT
0.496 -18.624 0.137 -17.726 QT
-0.222 -16.828 -0.566 -15.468 QT
-0.566 -15.312 -0.769 -15.312 QT
-1.051 -15.312 L
-1.113 -15.312 -1.183 -15.398 QT
-1.254 -15.484 -1.254 -15.562 QT
-0.988 -16.593 -0.746 -17.32 QT
-0.504 -18.046 0.004 -18.648 QT
0.512 -19.249 1.278 -19.249 QT
2.09 -19.249 2.715 -18.789 QT
3.34 -18.328 3.512 -17.531 QT
4.168 -18.281 4.965 -18.765 QT
5.762 -19.249 6.606 -19.249 QT
7.606 -19.249 8.356 -18.71 QT
9.106 -18.171 9.481 -17.296 QT
9.856 -16.421 9.856 -15.421 QT
9.856 -13.874 9.059 -12.218 QT
8.262 -10.562 6.91 -9.468 QT
5.559 -8.374 4.012 -8.374 QT
3.309 -8.374 2.738 -8.773 QT
2.168 -9.171 1.856 -9.812 QT
0.762 -5.546 L
0.715 -5.187 0.699 -5.14 QT
0.699 -4.812 2.278 -4.812 QT
2.528 -4.812 2.528 -4.515 QT
2.449 -4.203 2.395 -4.093 QT
2.34 -3.984 2.121 -3.984 QT
-2.535 -3.984 L
cp
4.043 -8.999 M
4.871 -8.999 5.582 -9.687 QT
6.293 -10.374 6.746 -11.234 QT
7.074 -11.874 7.363 -12.804 QT
7.653 -13.734 7.863 -14.789 QT
8.074 -15.843 8.074 -16.468 QT
8.074 -17.015 7.926 -17.499 QT
7.778 -17.984 7.442 -18.304 QT
7.106 -18.624 6.559 -18.624 QT
5.684 -18.624 4.903 -17.999 QT
4.121 -17.374 3.481 -16.453 QT
3.481 -16.359 L
2.168 -11.062 L
2.324 -10.218 2.793 -9.609 QT
3.262 -8.999 4.043 -8.999 QT
cp
f
GR
GS
[0.75 0 0 0.75 530.2505 33.125] CT
N
11.712 -5.04 M
11.712 -5.634 L
13.837 -5.634 13.837 -6.181 QT
13.837 -15.103 L
12.962 -14.681 11.618 -14.681 QT
11.618 -15.274 L
13.696 -15.274 14.759 -16.368 QT
14.993 -16.368 L
15.056 -16.368 15.11 -16.321 QT
15.165 -16.274 15.165 -16.212 QT
15.165 -6.181 L
15.165 -5.634 17.29 -5.634 QT
17.29 -5.04 L
11.712 -5.04 L
cp
f
GR
GS
[0.75 0 0 0.75 530.2505 33.125] CT
N
28.213 -11.828 M
28.01 -11.828 27.877 -11.984 QT
27.744 -12.14 27.744 -12.312 QT
27.744 -12.515 27.877 -12.656 QT
28.01 -12.796 28.213 -12.796 QT
43.275 -12.796 L
43.447 -12.796 43.58 -12.656 QT
43.713 -12.515 43.713 -12.312 QT
43.713 -12.14 43.58 -11.984 QT
43.447 -11.828 43.275 -11.828 QT
28.213 -11.828 L
cp
28.213 -16.499 M
28.01 -16.499 27.877 -16.64 QT
27.744 -16.781 27.744 -16.968 QT
27.744 -17.156 27.877 -17.304 QT
28.01 -17.453 28.213 -17.453 QT
43.275 -17.453 L
43.447 -17.453 43.58 -17.304 QT
43.713 -17.156 43.713 -16.968 QT
43.713 -16.781 43.58 -16.64 QT
43.447 -16.499 43.275 -16.499 QT
28.213 -16.499 L
cp
f
GR
GS
[0.75 0 0 0.75 530.2505 33.125] CT
N
53.968 -8.64 M
53.968 -9.484 L
56.968 -9.484 56.968 -10.249 QT
56.968 -22.843 L
55.718 -22.249 53.827 -22.249 QT
53.827 -23.093 L
56.765 -23.093 58.265 -24.624 QT
58.608 -24.624 L
58.687 -24.624 58.765 -24.562 QT
58.843 -24.499 58.843 -24.421 QT
58.843 -10.249 L
58.843 -9.484 61.843 -9.484 QT
61.843 -8.64 L
53.968 -8.64 L
cp
f
GR
GS
[0.75 0 0 0.75 530.2505 33.125] CT
N
69.734 -8.109 M
66.796 -8.109 65.734 -10.531 QT
64.671 -12.953 64.671 -16.296 QT
64.671 -18.374 65.054 -20.218 QT
65.437 -22.062 66.569 -23.343 QT
67.702 -24.624 69.734 -24.624 QT
71.312 -24.624 72.319 -23.851 QT
73.327 -23.078 73.859 -21.851 QT
74.39 -20.624 74.585 -19.226 QT
74.78 -17.828 74.78 -16.296 QT
74.78 -14.234 74.398 -12.437 QT
74.015 -10.64 72.898 -9.374 QT
71.78 -8.109 69.734 -8.109 QT
cp
69.734 -8.734 M
71.077 -8.734 71.734 -10.109 QT
72.39 -11.484 72.538 -13.148 QT
72.687 -14.812 72.687 -16.687 QT
72.687 -18.484 72.538 -20.007 QT
72.39 -21.531 71.734 -22.765 QT
71.077 -23.999 69.734 -23.999 QT
68.374 -23.999 67.718 -22.757 QT
67.062 -21.515 66.913 -19.999 QT
66.765 -18.484 66.765 -16.687 QT
66.765 -15.343 66.827 -14.164 QT
66.89 -12.984 67.171 -11.718 QT
67.452 -10.453 68.077 -9.593 QT
68.702 -8.734 69.734 -8.734 QT
cp
f
GR
GS
[0.75 0 0 0.75 530.2505 33.125] CT
N
78.109 -4.312 M
78.109 -4.421 78.202 -4.515 QT
79.077 -5.343 79.554 -6.437 QT
80.03 -7.531 80.03 -8.734 QT
80.03 -9.031 L
79.655 -8.64 79.077 -8.64 QT
78.53 -8.64 78.14 -9.031 QT
77.749 -9.421 77.749 -9.968 QT
77.749 -10.531 78.14 -10.906 QT
78.53 -11.281 79.077 -11.281 QT
79.937 -11.281 80.296 -10.492 QT
80.655 -9.703 80.655 -8.734 QT
80.655 -7.39 80.124 -6.195 QT
79.593 -4.999 78.624 -4.031 QT
78.53 -3.984 78.468 -3.984 QT
78.343 -3.984 78.226 -4.093 QT
78.109 -4.203 78.109 -4.312 QT
cp
f
GR
GS
[0.75 0 0 0.75 530.2505 33.125] CT
N
85.806 -3.984 M
85.572 -3.984 85.572 -4.296 QT
85.666 -4.812 85.9 -4.812 QT
86.65 -4.812 86.947 -4.953 QT
87.244 -5.093 87.416 -5.64 QT
90.119 -16.453 L
90.291 -16.89 90.291 -17.593 QT
90.291 -18.624 89.588 -18.624 QT
88.838 -18.624 88.478 -17.726 QT
88.119 -16.828 87.775 -15.468 QT
87.775 -15.312 87.572 -15.312 QT
87.291 -15.312 L
87.228 -15.312 87.158 -15.398 QT
87.088 -15.484 87.088 -15.562 QT
87.353 -16.593 87.595 -17.32 QT
87.838 -18.046 88.345 -18.648 QT
88.853 -19.249 89.619 -19.249 QT
90.431 -19.249 91.056 -18.789 QT
91.681 -18.328 91.853 -17.531 QT
92.51 -18.281 93.306 -18.765 QT
94.103 -19.249 94.947 -19.249 QT
95.947 -19.249 96.697 -18.71 QT
97.447 -18.171 97.822 -17.296 QT
98.197 -16.421 98.197 -15.421 QT
98.197 -13.874 97.4 -12.218 QT
96.603 -10.562 95.252 -9.468 QT
93.9 -8.374 92.353 -8.374 QT
91.65 -8.374 91.08 -8.773 QT
90.51 -9.171 90.197 -9.812 QT
89.103 -5.546 L
89.056 -5.187 89.041 -5.14 QT
89.041 -4.812 90.619 -4.812 QT
90.869 -4.812 90.869 -4.515 QT
90.791 -4.203 90.736 -4.093 QT
90.681 -3.984 90.463 -3.984 QT
85.806 -3.984 L
cp
92.385 -8.999 M
93.213 -8.999 93.924 -9.687 QT
94.635 -10.374 95.088 -11.234 QT
95.416 -11.874 95.705 -12.804 QT
95.994 -13.734 96.205 -14.789 QT
96.416 -15.843 96.416 -16.468 QT
96.416 -17.015 96.267 -17.499 QT
96.119 -17.984 95.783 -18.304 QT
95.447 -18.624 94.9 -18.624 QT
94.025 -18.624 93.244 -17.999 QT
92.463 -17.374 91.822 -16.453 QT
91.822 -16.359 L
90.51 -11.062 L
90.666 -10.218 91.135 -9.609 QT
91.603 -8.999 92.385 -8.999 QT
cp
f
GR
GS
[0.75 0 0 0.75 530.2505 33.125] CT
N
99.319 -5.04 M
99.319 -5.493 L
99.319 -5.54 99.35 -5.587 QT
101.991 -8.509 L
102.6 -9.165 102.967 -9.603 QT
103.335 -10.04 103.702 -10.61 QT
104.069 -11.181 104.28 -11.774 QT
104.491 -12.368 104.491 -13.04 QT
104.491 -13.728 104.233 -14.368 QT
103.975 -15.009 103.467 -15.384 QT
102.96 -15.759 102.241 -15.759 QT
101.491 -15.759 100.905 -15.321 QT
100.319 -14.884 100.085 -14.165 QT
100.147 -14.181 100.256 -14.181 QT
100.647 -14.181 100.913 -13.931 QT
101.178 -13.681 101.178 -13.259 QT
101.178 -12.884 100.913 -12.61 QT
100.647 -12.337 100.256 -12.337 QT
99.866 -12.337 99.592 -12.618 QT
99.319 -12.899 99.319 -13.259 QT
99.319 -13.899 99.561 -14.462 QT
99.803 -15.024 100.256 -15.462 QT
100.71 -15.899 101.28 -16.134 QT
101.85 -16.368 102.491 -16.368 QT
103.46 -16.368 104.295 -15.954 QT
105.131 -15.54 105.624 -14.79 QT
106.116 -14.04 106.116 -13.04 QT
106.116 -12.29 105.788 -11.626 QT
105.46 -10.962 104.96 -10.423 QT
104.46 -9.884 103.67 -9.196 QT
102.881 -8.509 102.631 -8.274 QT
100.694 -6.415 L
102.335 -6.415 L
103.538 -6.415 104.35 -6.439 QT
105.163 -6.462 105.21 -6.509 QT
105.413 -6.712 105.616 -8.071 QT
106.116 -8.071 L
105.631 -5.04 L
99.319 -5.04 L
cp
f
GR
GS
[0.75 0 0 0.75 530.2505 33.125] CT
N
116.554 -11.828 M
116.351 -11.828 116.218 -11.984 QT
116.085 -12.14 116.085 -12.312 QT
116.085 -12.515 116.218 -12.656 QT
116.351 -12.796 116.554 -12.796 QT
131.617 -12.796 L
131.789 -12.796 131.921 -12.656 QT
132.054 -12.515 132.054 -12.312 QT
132.054 -12.14 131.921 -11.984 QT
131.789 -11.828 131.617 -11.828 QT
116.554 -11.828 L
cp
116.554 -16.499 M
116.351 -16.499 116.218 -16.64 QT
116.085 -16.781 116.085 -16.968 QT
116.085 -17.156 116.218 -17.304 QT
116.351 -17.453 116.554 -17.453 QT
131.617 -17.453 L
131.789 -17.453 131.921 -17.304 QT
132.054 -17.156 132.054 -16.968 QT
132.054 -16.781 131.921 -16.64 QT
131.789 -16.499 131.617 -16.499 QT
116.554 -16.499 L
cp
f
GR
GS
[0.75 0 0 0.75 530.2505 33.125] CT
N
141.278 -8.64 M
141.278 -9.281 L
141.278 -9.343 141.325 -9.421 QT
145.044 -13.546 L
145.887 -14.453 146.419 -15.078 QT
146.95 -15.703 147.466 -16.507 QT
147.981 -17.312 148.278 -18.148 QT
148.575 -18.984 148.575 -19.921 QT
148.575 -20.906 148.208 -21.804 QT
147.841 -22.703 147.122 -23.242 QT
146.403 -23.781 145.387 -23.781 QT
144.341 -23.781 143.512 -23.156 QT
142.684 -22.531 142.341 -21.531 QT
142.434 -21.562 142.591 -21.562 QT
143.137 -21.562 143.52 -21.195 QT
143.903 -20.828 143.903 -20.249 QT
143.903 -19.703 143.52 -19.32 QT
143.137 -18.937 142.591 -18.937 QT
142.028 -18.937 141.653 -19.335 QT
141.278 -19.734 141.278 -20.249 QT
141.278 -21.156 141.614 -21.945 QT
141.95 -22.734 142.591 -23.351 QT
143.231 -23.968 144.036 -24.296 QT
144.841 -24.624 145.731 -24.624 QT
147.106 -24.624 148.294 -24.046 QT
149.481 -23.468 150.169 -22.406 QT
150.856 -21.343 150.856 -19.921 QT
150.856 -18.89 150.403 -17.953 QT
149.95 -17.015 149.231 -16.242 QT
148.512 -15.468 147.403 -14.499 QT
146.294 -13.531 145.934 -13.203 QT
143.216 -10.593 L
145.528 -10.593 L
147.231 -10.593 148.372 -10.617 QT
149.512 -10.64 149.575 -10.703 QT
149.856 -11.015 150.153 -12.921 QT
150.856 -12.921 L
150.184 -8.64 L
141.278 -8.64 L
cp
f
GR
GS
[0.75 0 0 0.75 530.2505 33.125] CT
N
158.075 -8.109 M
155.137 -8.109 154.075 -10.531 QT
153.012 -12.953 153.012 -16.296 QT
153.012 -18.374 153.395 -20.218 QT
153.778 -22.062 154.911 -23.343 QT
156.044 -24.624 158.075 -24.624 QT
159.653 -24.624 160.661 -23.851 QT
161.669 -23.078 162.2 -21.851 QT
162.731 -20.624 162.926 -19.226 QT
163.122 -17.828 163.122 -16.296 QT
163.122 -14.234 162.739 -12.437 QT
162.356 -10.64 161.239 -9.374 QT
160.122 -8.109 158.075 -8.109 QT
cp
158.075 -8.734 M
159.419 -8.734 160.075 -10.109 QT
160.731 -11.484 160.88 -13.148 QT
161.028 -14.812 161.028 -16.687 QT
161.028 -18.484 160.88 -20.007 QT
160.731 -21.531 160.075 -22.765 QT
159.419 -23.999 158.075 -23.999 QT
156.716 -23.999 156.059 -22.757 QT
155.403 -21.515 155.255 -19.999 QT
155.106 -18.484 155.106 -16.687 QT
155.106 -15.343 155.169 -14.164 QT
155.231 -12.984 155.512 -11.718 QT
155.794 -10.453 156.419 -9.593 QT
157.044 -8.734 158.075 -8.734 QT
cp
f
GR
GS
[0.75 0 0 0.75 0 -0.25] CT
0.635 0.078 0.184 RC
1 LJ
2 LW
N
178 579 M
188.58 578.773 L
199.16 577.948 L
209.74 576.325 L
220.32 573.745 L
230.9 570.103 L
241.48 565.357 L
252.06 559.538 L
262.64 552.745 L
273.22 545.125 L
283.8 536.877 L
294.38 528.229 L
304.96 519.427 L
315.54 510.706 L
326.12 502.251 L
336.7 494.202 L
347.28 486.651 L
357.86 479.645 L
368.44 473.142 L
379.02 466.999 L
389.6 461.057 L
400.18 455.138 L
410.76 449.049 L
421.34 442.583 L
431.92 435.518 L
442.5 427.695 L
453.08 419.041 L
463.66 409.537 L
474.24 399.22 L
484.82 388.187 L
495.4 376.588 L
505.98 364.632 L
516.56 352.566 L
527.14 340.642 L
537.72 329.099 L
548.3 318.119 L
558.88 307.832 L
569.46 298.312 L
580.04 289.581 L
590.62 281.605 L
601.2 274.296 L
611.78 267.512 L
622.36 261.06 L
632.94 254.687 L
643.52 248.17 L
654.1 241.333 L
664.68 234.051 L
675.26 226.247 L
685.84 217.897 L
696.42 209.023 L
707 199.699 L
717.58 190.061 L
728.16 180.363 L
738.74 170.866 L
749.32 161.798 L
759.9 153.356 L
770.48 145.706 L
781.06 138.979 L
791.64 133.277 L
802.22 128.668 L
812.8 125.098 L
823.38 122.384 L
833.96 120.332 L
844.54 118.751 L
855.12 117.452 L
865.7 116.247 L
876.28 114.951 L
886.86 113.38 L
897.44 111.366 L
908.02 108.898 L
918.6 106.061 L
929.18 102.969 L
939.76 99.766 L
950.34 96.62 L
960.92 93.73 L
971.5 91.324 L
982.08 89.657 L
992.66 88.954 L
1003.24 89.3 L
1013.82 90.717 L
1024.4 93.183 L
1034.98 96.633 L
1045.56 100.959 L
1056.14 106.007 L
1066.72 111.582 L
1077.3 117.442 L
1087.88 123.307 L
1098.46 128.945 L
1109.04 134.23 L
1119.62 139.088 L
1130.2 143.493 L
1140.78 147.471 L
1151.36 151.095 L
1161.94 154.491 L
1172.52 157.834 L
1183.1 161.348 L
1193.68 165.283 L
1204.26 169.827 L
1214.84 175.146 L
1225.42 181.351 L
1236 188.495 L
S
GR
GS
[0.75 0 0 0.75 0 -0.25] CT
0.929 0.694 0.125 RC
1 LJ
2 LW
N
178 579 M
188.58 578.808 L
199.16 578.108 L
209.74 576.731 L
220.32 574.54 L
230.9 571.445 L
241.48 567.407 L
252.06 562.446 L
262.64 556.648 L
273.22 550.14 L
283.8 543.079 L
294.38 535.658 L
304.96 528.08 L
315.54 520.543 L
326.12 513.21 L
336.7 506.2 L
347.28 499.584 L
357.86 493.387 L
368.44 487.593 L
379.02 482.102 L
389.6 476.748 L
400.18 471.365 L
410.76 465.791 L
421.34 459.868 L
431.92 453.443 L
442.5 446.364 L
453.08 438.511 L
463.66 429.884 L
474.24 420.535 L
484.82 410.552 L
495.4 400.057 L
505.98 389.209 L
516.56 378.197 L
527.14 367.249 L
537.72 356.574 L
548.3 346.33 L
558.88 336.629 L
569.46 327.537 L
580.04 319.071 L
590.62 311.201 L
601.2 303.847 L
611.78 296.885 L
622.36 290.143 L
632.94 283.431 L
643.52 276.556 L
654.1 269.365 L
664.68 261.747 L
675.26 253.64 L
685.84 245.024 L
696.42 235.928 L
707 226.426 L
717.58 216.636 L
728.16 206.722 L
738.74 196.903 L
749.32 187.406 L
759.9 178.415 L
770.48 170.076 L
781.06 162.492 L
791.64 155.726 L
802.22 149.799 L
812.8 144.693 L
823.38 140.343 L
833.96 136.58 L
844.54 133.193 L
855.12 129.996 L
865.7 126.828 L
876.28 123.553 L
886.86 120.059 L
897.44 116.259 L
908.02 112.09 L
918.6 107.542 L
929.18 102.741 L
939.76 97.851 L
950.34 93.038 L
960.92 88.474 L
971.5 84.33 L
982.08 80.786 L
992.66 78.022 L
1003.24 76.197 L
1013.82 75.338 L
1024.4 75.406 L
1034.98 76.335 L
1045.56 78.03 L
1056.14 80.365 L
1066.72 83.183 L
1077.3 86.302 L
1087.88 89.506 L
1098.46 92.567 L
1109.04 95.362 L
1119.62 97.848 L
1130.2 100.021 L
1140.78 101.911 L
1151.36 103.585 L
1161.94 105.144 L
1172.52 106.727 L
1183.1 108.509 L
1193.68 110.699 L
1204.26 113.511 L
1214.84 117.061 L
1225.42 121.45 L
1236 126.725 L
S
GR
%%Trailer
%%Pages: 1
%%EOF
