%!PS-Adobe-3.0 EPSF-3.0
%%Creator: (MATLAB, The Mathworks, Inc. Version 9.4.0.813654 \(R2018a\). Operating System: Windows 10)
%%Title: (C:/Users/basil/OneDrive/???????????/THMMY/??????????? ??? ?????????????/simulation-and-modelling-of-dynamic-systems/project1/???????/5.5.eps)
%%CreationDate: 2022-04-08T23:12:49
%%Pages: (atend)
%%BoundingBox: 0 0 1025 488
%%LanguageLevel: 3
%%EndComments
%%BeginProlog
%%BeginResource: procset (Apache XML Graphics Std ProcSet) 1.2 0
%%Version: 1.2 0
%%Copyright: (Copyright 2001-2003,2010 The Apache Software Foundation. License terms: http://www.apache.org/licenses/LICENSE-2.0)
/bd{bind def}bind def
/ld{load def}bd
/GR/grestore ld
/GS/gsave ld
/RM/rmoveto ld
/C/curveto ld
/t/show ld
/L/lineto ld
/ML/setmiterlimit ld
/CT/concat ld
/f/fill ld
/N/newpath ld
/S/stroke ld
/CC/setcmykcolor ld
/A/ashow ld
/cp/closepath ld
/RC/setrgbcolor ld
/LJ/setlinejoin ld
/GC/setgray ld
/LW/setlinewidth ld
/M/moveto ld
/re {4 2 roll M
1 index 0 rlineto
0 exch rlineto
neg 0 rlineto
cp } bd
/_ctm matrix def
/_tm matrix def
/BT { _ctm currentmatrix pop matrix _tm copy pop 0 0 moveto } bd
/ET { _ctm setmatrix } bd
/iTm { _ctm setmatrix _tm concat } bd
/Tm { _tm astore pop iTm 0 0 moveto } bd
/ux 0.0 def
/uy 0.0 def
/F {
  /Tp exch def
  /Tf exch def
  Tf findfont Tp scalefont setfont
  /cf Tf def  /cs Tp def
} bd
/ULS {currentpoint /uy exch def /ux exch def} bd
/ULE {
  /Tcx currentpoint pop def
  gsave
  newpath
  cf findfont cs scalefont dup
  /FontMatrix get 0 get /Ts exch def /FontInfo get dup
  /UnderlinePosition get Ts mul /To exch def
  /UnderlineThickness get Ts mul /Tt exch def
  ux uy To add moveto  Tcx uy To add lineto
  Tt setlinewidth stroke
  grestore
} bd
/OLE {
  /Tcx currentpoint pop def
  gsave
  newpath
  cf findfont cs scalefont dup
  /FontMatrix get 0 get /Ts exch def /FontInfo get dup
  /UnderlinePosition get Ts mul /To exch def
  /UnderlineThickness get Ts mul /Tt exch def
  ux uy To add cs add moveto Tcx uy To add cs add lineto
  Tt setlinewidth stroke
  grestore
} bd
/SOE {
  /Tcx currentpoint pop def
  gsave
  newpath
  cf findfont cs scalefont dup
  /FontMatrix get 0 get /Ts exch def /FontInfo get dup
  /UnderlinePosition get Ts mul /To exch def
  /UnderlineThickness get Ts mul /Tt exch def
  ux uy To add cs 10 mul 26 idiv add moveto Tcx uy To add cs 10 mul 26 idiv add lineto
  Tt setlinewidth stroke
  grestore
} bd
/QT {
/Y22 exch store
/X22 exch store
/Y21 exch store
/X21 exch store
currentpoint
/Y21 load 2 mul add 3 div exch
/X21 load 2 mul add 3 div exch
/X21 load 2 mul /X22 load add 3 div
/Y21 load 2 mul /Y22 load add 3 div
/X22 load /Y22 load curveto
} bd
/SSPD {
dup length /d exch dict def
{
/v exch def
/k exch def
currentpagedevice k known {
/cpdv currentpagedevice k get def
v cpdv ne {
/upd false def
/nullv v type /nulltype eq def
/nullcpdv cpdv type /nulltype eq def
nullv nullcpdv or
{
/upd true def
} {
/sametype v type cpdv type eq def
sametype {
v type /arraytype eq {
/vlen v length def
/cpdvlen cpdv length def
vlen cpdvlen eq {
0 1 vlen 1 sub {
/i exch def
/obj v i get def
/cpdobj cpdv i get def
obj cpdobj ne {
/upd true def
exit
} if
} for
} {
/upd true def
} ifelse
} {
v type /dicttype eq {
v {
/dv exch def
/dk exch def
/cpddv cpdv dk get def
dv cpddv ne {
/upd true def
exit
} if
} forall
} {
/upd true def
} ifelse
} ifelse
} if
} ifelse
upd true eq {
d k v put
} if
} if
} if
} forall
d length 0 gt {
d setpagedevice
} if
} bd
/RE { % /NewFontName [NewEncodingArray] /FontName RE -
  findfont dup length dict begin
  {
    1 index /FID ne
    {def} {pop pop} ifelse
  } forall
  /Encoding exch def
  /FontName 1 index def
  currentdict definefont pop
  end
} bind def
%%EndResource
%%BeginResource: procset (Apache XML Graphics EPS ProcSet) 1.0 0
%%Version: 1.0 0
%%Copyright: (Copyright 2002-2003 The Apache Software Foundation. License terms: http://www.apache.org/licenses/LICENSE-2.0)
/BeginEPSF { %def
/b4_Inc_state save def         % Save state for cleanup
/dict_count countdictstack def % Count objects on dict stack
/op_count count 1 sub def      % Count objects on operand stack
userdict begin                 % Push userdict on dict stack
/showpage { } def              % Redefine showpage, { } = null proc
0 setgray 0 setlinecap         % Prepare graphics state
1 setlinewidth 0 setlinejoin
10 setmiterlimit [ ] 0 setdash newpath
/languagelevel where           % If level not equal to 1 then
{pop languagelevel             % set strokeadjust and
1 ne                           % overprint to their defaults.
{false setstrokeadjust false setoverprint
} if
} if
} bd
/EndEPSF { %def
count op_count sub {pop} repeat            % Clean up stacks
countdictstack dict_count sub {end} repeat
b4_Inc_state restore
} bd
%%EndResource
%FOPBeginFontDict
%%IncludeResource: font Courier-Oblique
%%IncludeResource: font Courier-BoldOblique
%%IncludeResource: font Courier-Bold
%%IncludeResource: font ZapfDingbats
%%IncludeResource: font Symbol
%%IncludeResource: font Helvetica
%%IncludeResource: font Helvetica-Oblique
%%IncludeResource: font Helvetica-Bold
%%IncludeResource: font Helvetica-BoldOblique
%%IncludeResource: font Times-Roman
%%IncludeResource: font Times-Italic
%%IncludeResource: font Times-Bold
%%IncludeResource: font Times-BoldItalic
%%IncludeResource: font Courier
%FOPEndFontDict
%%BeginResource: encoding WinAnsiEncoding
/WinAnsiEncoding [
/.notdef /.notdef /.notdef /.notdef /.notdef
/.notdef /.notdef /.notdef /.notdef /.notdef
/.notdef /.notdef /.notdef /.notdef /.notdef
/.notdef /.notdef /.notdef /.notdef /.notdef
/.notdef /.notdef /.notdef /.notdef /.notdef
/.notdef /.notdef /.notdef /.notdef /.notdef
/.notdef /.notdef /space /exclam /quotedbl
/numbersign /dollar /percent /ampersand /quotesingle
/parenleft /parenright /asterisk /plus /comma
/hyphen /period /slash /zero /one
/two /three /four /five /six
/seven /eight /nine /colon /semicolon
/less /equal /greater /question /at
/A /B /C /D /E
/F /G /H /I /J
/K /L /M /N /O
/P /Q /R /S /T
/U /V /W /X /Y
/Z /bracketleft /backslash /bracketright /asciicircum
/underscore /quoteleft /a /b /c
/d /e /f /g /h
/i /j /k /l /m
/n /o /p /q /r
/s /t /u /v /w
/x /y /z /braceleft /bar
/braceright /asciitilde /bullet /Euro /bullet
/quotesinglbase /florin /quotedblbase /ellipsis /dagger
/daggerdbl /circumflex /perthousand /Scaron /guilsinglleft
/OE /bullet /Zcaron /bullet /bullet
/quoteleft /quoteright /quotedblleft /quotedblright /bullet
/endash /emdash /asciitilde /trademark /scaron
/guilsinglright /oe /bullet /zcaron /Ydieresis
/space /exclamdown /cent /sterling /currency
/yen /brokenbar /section /dieresis /copyright
/ordfeminine /guillemotleft /logicalnot /sfthyphen /registered
/macron /degree /plusminus /twosuperior /threesuperior
/acute /mu /paragraph /middot /cedilla
/onesuperior /ordmasculine /guillemotright /onequarter /onehalf
/threequarters /questiondown /Agrave /Aacute /Acircumflex
/Atilde /Adieresis /Aring /AE /Ccedilla
/Egrave /Eacute /Ecircumflex /Edieresis /Igrave
/Iacute /Icircumflex /Idieresis /Eth /Ntilde
/Ograve /Oacute /Ocircumflex /Otilde /Odieresis
/multiply /Oslash /Ugrave /Uacute /Ucircumflex
/Udieresis /Yacute /Thorn /germandbls /agrave
/aacute /acircumflex /atilde /adieresis /aring
/ae /ccedilla /egrave /eacute /ecircumflex
/edieresis /igrave /iacute /icircumflex /idieresis
/eth /ntilde /ograve /oacute /ocircumflex
/otilde /odieresis /divide /oslash /ugrave
/uacute /ucircumflex /udieresis /yacute /thorn
/ydieresis
] def
%%EndResource
%FOPBeginFontReencode
/Courier-Oblique findfont
dup length dict begin
  {1 index /FID ne {def} {pop pop} ifelse} forall
  /Encoding WinAnsiEncoding def
  currentdict
end
/Courier-Oblique exch definefont pop
/Courier-BoldOblique findfont
dup length dict begin
  {1 index /FID ne {def} {pop pop} ifelse} forall
  /Encoding WinAnsiEncoding def
  currentdict
end
/Courier-BoldOblique exch definefont pop
/Courier-Bold findfont
dup length dict begin
  {1 index /FID ne {def} {pop pop} ifelse} forall
  /Encoding WinAnsiEncoding def
  currentdict
end
/Courier-Bold exch definefont pop
/Helvetica findfont
dup length dict begin
  {1 index /FID ne {def} {pop pop} ifelse} forall
  /Encoding WinAnsiEncoding def
  currentdict
end
/Helvetica exch definefont pop
/Helvetica-Oblique findfont
dup length dict begin
  {1 index /FID ne {def} {pop pop} ifelse} forall
  /Encoding WinAnsiEncoding def
  currentdict
end
/Helvetica-Oblique exch definefont pop
/Helvetica-Bold findfont
dup length dict begin
  {1 index /FID ne {def} {pop pop} ifelse} forall
  /Encoding WinAnsiEncoding def
  currentdict
end
/Helvetica-Bold exch definefont pop
/Helvetica-BoldOblique findfont
dup length dict begin
  {1 index /FID ne {def} {pop pop} ifelse} forall
  /Encoding WinAnsiEncoding def
  currentdict
end
/Helvetica-BoldOblique exch definefont pop
/Times-Roman findfont
dup length dict begin
  {1 index /FID ne {def} {pop pop} ifelse} forall
  /Encoding WinAnsiEncoding def
  currentdict
end
/Times-Roman exch definefont pop
/Times-Italic findfont
dup length dict begin
  {1 index /FID ne {def} {pop pop} ifelse} forall
  /Encoding WinAnsiEncoding def
  currentdict
end
/Times-Italic exch definefont pop
/Times-Bold findfont
dup length dict begin
  {1 index /FID ne {def} {pop pop} ifelse} forall
  /Encoding WinAnsiEncoding def
  currentdict
end
/Times-Bold exch definefont pop
/Times-BoldItalic findfont
dup length dict begin
  {1 index /FID ne {def} {pop pop} ifelse} forall
  /Encoding WinAnsiEncoding def
  currentdict
end
/Times-BoldItalic exch definefont pop
/Courier findfont
dup length dict begin
  {1 index /FID ne {def} {pop pop} ifelse} forall
  /Encoding WinAnsiEncoding def
  currentdict
end
/Courier exch definefont pop
%FOPEndFontReencode
%%EndProlog
%%Page: 1 1
%%PageBoundingBox: 0 0 1025 488
%%BeginPageSetup
[1 0 0 -1 0 488] CT
%%EndPageSetup
GS
[0.75 0 0 0.75 0 -0.25] CT
1 GC
N
0 0 1366 651 re
f
GR
GS
[0.75 0 0 0.75 0 -0.25] CT
1 GC
N
0 0 1366 651 re
f
GR
GS
[0.75 0 0 0.75 0 -0.25] CT
1 GC
N
178 579 M
1236 579 L
1236 49 L
178 49 L
cp
f
GR
GS
[0.75 0 0 0.75 0 -0.25] CT
0.873 GC
1 LJ
0.667 LW
N
178 579 M
178 49 L
S
GR
GS
[0.75 0 0 0.75 0 -0.25] CT
0.873 GC
1 LJ
0.667 LW
N
283.8 579 M
283.8 49 L
S
GR
GS
[0.75 0 0 0.75 0 -0.25] CT
0.873 GC
1 LJ
0.667 LW
N
389.6 579 M
389.6 49 L
S
GR
GS
[0.75 0 0 0.75 0 -0.25] CT
0.873 GC
1 LJ
0.667 LW
N
495.4 579 M
495.4 49 L
S
GR
GS
[0.75 0 0 0.75 0 -0.25] CT
0.873 GC
1 LJ
0.667 LW
N
601.2 579 M
601.2 49 L
S
GR
GS
[0.75 0 0 0.75 0 -0.25] CT
0.873 GC
1 LJ
0.667 LW
N
707 579 M
707 49 L
S
GR
GS
[0.75 0 0 0.75 0 -0.25] CT
0.873 GC
1 LJ
0.667 LW
N
812.8 579 M
812.8 49 L
S
GR
GS
[0.75 0 0 0.75 0 -0.25] CT
0.873 GC
1 LJ
0.667 LW
N
918.6 579 M
918.6 49 L
S
GR
GS
[0.75 0 0 0.75 0 -0.25] CT
0.873 GC
1 LJ
0.667 LW
N
1024.4 579 M
1024.4 49 L
S
GR
GS
[0.75 0 0 0.75 0 -0.25] CT
0.873 GC
1 LJ
0.667 LW
N
1130.2 579 M
1130.2 49 L
S
GR
GS
[0.75 0 0 0.75 0 -0.25] CT
0.873 GC
1 LJ
0.667 LW
N
1236 579 M
1236 49 L
S
GR
GS
[0.75 0 0 0.75 0 -0.25] CT
0.873 GC
1 LJ
0.667 LW
N
1236 579 M
178 579 L
S
GR
GS
[0.75 0 0 0.75 0 -0.25] CT
0.873 GC
1 LJ
0.667 LW
N
1236 503.286 M
178 503.286 L
S
GR
GS
[0.75 0 0 0.75 0 -0.25] CT
0.873 GC
1 LJ
0.667 LW
N
1236 427.571 M
178 427.571 L
S
GR
GS
[0.75 0 0 0.75 0 -0.25] CT
0.873 GC
1 LJ
0.667 LW
N
1236 351.857 M
178 351.857 L
S
GR
GS
[0.75 0 0 0.75 0 -0.25] CT
0.873 GC
1 LJ
0.667 LW
N
1236 276.143 M
178 276.143 L
S
GR
GS
[0.75 0 0 0.75 0 -0.25] CT
0.873 GC
1 LJ
0.667 LW
N
1236 200.429 M
178 200.429 L
S
GR
GS
[0.75 0 0 0.75 0 -0.25] CT
0.873 GC
1 LJ
0.667 LW
N
1236 124.714 M
178 124.714 L
S
GR
GS
[0.75 0 0 0.75 0 -0.25] CT
0.873 GC
1 LJ
0.667 LW
N
1236 49 M
178 49 L
S
GR
GS
[0.75 0 0 0.75 0 -0.25] CT
0.149 GC
2 setlinecap
1 LJ
0.667 LW
N
178 579 M
1236 579 L
S
GR
GS
[0.75 0 0 0.75 0 -0.25] CT
0.149 GC
2 setlinecap
1 LJ
0.667 LW
N
178 49 M
1236 49 L
S
GR
GS
[0.75 0 0 0.75 0 -0.25] CT
0.149 GC
2 setlinecap
1 LJ
0.667 LW
N
178 579 M
178 568.42 L
S
GR
GS
[0.75 0 0 0.75 0 -0.25] CT
0.149 GC
2 setlinecap
1 LJ
0.667 LW
N
283.8 579 M
283.8 568.42 L
S
GR
GS
[0.75 0 0 0.75 0 -0.25] CT
0.149 GC
2 setlinecap
1 LJ
0.667 LW
N
389.6 579 M
389.6 568.42 L
S
GR
GS
[0.75 0 0 0.75 0 -0.25] CT
0.149 GC
2 setlinecap
1 LJ
0.667 LW
N
495.4 579 M
495.4 568.42 L
S
GR
GS
[0.75 0 0 0.75 0 -0.25] CT
0.149 GC
2 setlinecap
1 LJ
0.667 LW
N
601.2 579 M
601.2 568.42 L
S
GR
GS
[0.75 0 0 0.75 0 -0.25] CT
0.149 GC
2 setlinecap
1 LJ
0.667 LW
N
707 579 M
707 568.42 L
S
GR
GS
[0.75 0 0 0.75 0 -0.25] CT
0.149 GC
2 setlinecap
1 LJ
0.667 LW
N
812.8 579 M
812.8 568.42 L
S
GR
GS
[0.75 0 0 0.75 0 -0.25] CT
0.149 GC
2 setlinecap
1 LJ
0.667 LW
N
918.6 579 M
918.6 568.42 L
S
GR
GS
[0.75 0 0 0.75 0 -0.25] CT
0.149 GC
2 setlinecap
1 LJ
0.667 LW
N
1024.4 579 M
1024.4 568.42 L
S
GR
GS
[0.75 0 0 0.75 0 -0.25] CT
0.149 GC
2 setlinecap
1 LJ
0.667 LW
N
1130.2 579 M
1130.2 568.42 L
S
GR
GS
[0.75 0 0 0.75 0 -0.25] CT
0.149 GC
2 setlinecap
1 LJ
0.667 LW
N
1236 579 M
1236 568.42 L
S
GR
GS
[0.75 0 0 0.75 0 -0.25] CT
0.149 GC
2 setlinecap
1 LJ
0.667 LW
N
178 49 M
178 59.58 L
S
GR
GS
[0.75 0 0 0.75 0 -0.25] CT
0.149 GC
2 setlinecap
1 LJ
0.667 LW
N
283.8 49 M
283.8 59.58 L
S
GR
GS
[0.75 0 0 0.75 0 -0.25] CT
0.149 GC
2 setlinecap
1 LJ
0.667 LW
N
389.6 49 M
389.6 59.58 L
S
GR
GS
[0.75 0 0 0.75 0 -0.25] CT
0.149 GC
2 setlinecap
1 LJ
0.667 LW
N
495.4 49 M
495.4 59.58 L
S
GR
GS
[0.75 0 0 0.75 0 -0.25] CT
0.149 GC
2 setlinecap
1 LJ
0.667 LW
N
601.2 49 M
601.2 59.58 L
S
GR
GS
[0.75 0 0 0.75 0 -0.25] CT
0.149 GC
2 setlinecap
1 LJ
0.667 LW
N
707 49 M
707 59.58 L
S
GR
GS
[0.75 0 0 0.75 0 -0.25] CT
0.149 GC
2 setlinecap
1 LJ
0.667 LW
N
812.8 49 M
812.8 59.58 L
S
GR
GS
[0.75 0 0 0.75 0 -0.25] CT
0.149 GC
2 setlinecap
1 LJ
0.667 LW
N
918.6 49 M
918.6 59.58 L
S
GR
GS
[0.75 0 0 0.75 0 -0.25] CT
0.149 GC
2 setlinecap
1 LJ
0.667 LW
N
1024.4 49 M
1024.4 59.58 L
S
GR
GS
[0.75 0 0 0.75 0 -0.25] CT
0.149 GC
2 setlinecap
1 LJ
0.667 LW
N
1130.2 49 M
1130.2 59.58 L
S
GR
GS
[0.75 0 0 0.75 0 -0.25] CT
0.149 GC
2 setlinecap
1 LJ
0.667 LW
N
1236 49 M
1236 59.58 L
S
GR
GS
[0.75 0 0 0.75 133.5 437.99998] CT
0.149 GC
/Helvetica 13.333 F
GS
[1 0 0 1 0 0] CT
-4 14 moveto 
1 -1 scale
(0) t 
GR
GR
GS
[0.75 0 0 0.75 212.84999 437.99998] CT
0.149 GC
/Helvetica 13.333 F
GS
[1 0 0 1 0 0] CT
-4 14 moveto 
1 -1 scale
(1) t 
GR
GR
GS
[0.75 0 0 0.75 292.2 437.99998] CT
0.149 GC
/Helvetica 13.333 F
GS
[1 0 0 1 0 0] CT
-4 14 moveto 
1 -1 scale
(2) t 
GR
GR
GS
[0.75 0 0 0.75 371.55 437.99998] CT
0.149 GC
/Helvetica 13.333 F
GS
[1 0 0 1 0 0] CT
-4 14 moveto 
1 -1 scale
(3) t 
GR
GR
GS
[0.75 0 0 0.75 450.90001 437.99998] CT
0.149 GC
/Helvetica 13.333 F
GS
[1 0 0 1 0 0] CT
-4 14 moveto 
1 -1 scale
(4) t 
GR
GR
GS
[0.75 0 0 0.75 530.25 437.99998] CT
0.149 GC
/Helvetica 13.333 F
GS
[1 0 0 1 0 0] CT
-4 14 moveto 
1 -1 scale
(5) t 
GR
GR
GS
[0.75 0 0 0.75 609.59999 437.99998] CT
0.149 GC
/Helvetica 13.333 F
GS
[1 0 0 1 0 0] CT
-4 14 moveto 
1 -1 scale
(6) t 
GR
GR
GS
[0.75 0 0 0.75 688.94998 437.99998] CT
0.149 GC
/Helvetica 13.333 F
GS
[1 0 0 1 0 0] CT
-4 14 moveto 
1 -1 scale
(7) t 
GR
GR
GS
[0.75 0 0 0.75 768.30002 437.99998] CT
0.149 GC
/Helvetica 13.333 F
GS
[1 0 0 1 0 0] CT
-4 14 moveto 
1 -1 scale
(8) t 
GR
GR
GS
[0.75 0 0 0.75 847.64996 437.99998] CT
0.149 GC
/Helvetica 13.333 F
GS
[1 0 0 1 0 0] CT
-4 14 moveto 
1 -1 scale
(9) t 
GR
GR
GS
[0.75 0 0 0.75 927 437.99998] CT
0.149 GC
/Helvetica 13.333 F
GS
[1 0 0 1 0 0] CT
-7.5 14 moveto 
1 -1 scale
(10) t 
GR
GR
GS
[0.75 0 0 0.75 530.25037 451.75002] CT
0.149 GC
N
-31.963 11.518 M
-31.963 7.096 L
-33.291 7.096 L
-33.291 6.69 L
-32.244 6.69 -31.752 5.713 QT
-31.26 4.737 -31.26 3.596 QT
-30.807 3.596 L
-30.807 6.534 L
-28.541 6.534 L
-28.541 7.096 L
-30.807 7.096 L
-30.807 11.487 L
-30.807 12.143 -30.58 12.643 QT
-30.354 13.143 -29.776 13.143 QT
-29.229 13.143 -28.987 12.62 QT
-28.744 12.096 -28.744 11.487 QT
-28.744 10.534 L
-28.291 10.534 L
-28.291 11.518 L
-28.291 12.018 -28.471 12.502 QT
-28.651 12.987 -29.01 13.307 QT
-29.369 13.627 -29.885 13.627 QT
-30.854 13.627 -31.408 13.049 QT
-31.963 12.471 -31.963 11.518 QT
cp
f
GR
GS
[0.75 0 0 0.75 530.25037 451.75002] CT
0.149 GC
N
-26.882 13.44 M
-26.882 12.877 L
-26.335 12.877 -25.983 12.792 QT
-25.632 12.706 -25.632 12.362 QT
-25.632 8.002 L
-25.632 7.377 -25.874 7.237 QT
-26.116 7.096 -26.819 7.096 QT
-26.819 6.534 L
-24.507 6.362 L
-24.507 12.362 L
-24.507 12.706 -24.202 12.792 QT
-23.897 12.877 -23.397 12.877 QT
-23.397 13.44 L
-26.882 13.44 L
cp
-26.21 3.612 M
-26.21 3.268 -25.944 3.002 QT
-25.678 2.737 -25.335 2.737 QT
-25.1 2.737 -24.889 2.854 QT
-24.678 2.971 -24.561 3.182 QT
-24.444 3.393 -24.444 3.612 QT
-24.444 3.956 -24.71 4.221 QT
-24.975 4.487 -25.335 4.487 QT
-25.678 4.487 -25.944 4.221 QT
-26.21 3.956 -26.21 3.612 QT
cp
f
GR
GS
[0.75 0 0 0.75 530.25037 451.75002] CT
0.149 GC
N
-22.453 13.44 M
-22.453 12.877 L
-21.906 12.877 -21.554 12.792 QT
-21.203 12.706 -21.203 12.362 QT
-21.203 8.002 L
-21.203 7.565 -21.336 7.377 QT
-21.468 7.19 -21.711 7.143 QT
-21.953 7.096 -22.453 7.096 QT
-22.453 6.534 L
-20.14 6.362 L
-20.14 7.924 L
-19.812 7.237 -19.187 6.799 QT
-18.562 6.362 -17.812 6.362 QT
-15.968 6.362 -15.656 7.862 QT
-15.328 7.19 -14.711 6.776 QT
-14.093 6.362 -13.359 6.362 QT
-12.64 6.362 -12.14 6.596 QT
-11.64 6.831 -11.39 7.315 QT
-11.14 7.799 -11.14 8.518 QT
-11.14 12.362 L
-11.14 12.706 -10.789 12.792 QT
-10.437 12.877 -9.89 12.877 QT
-9.89 13.44 L
-13.562 13.44 L
-13.562 12.877 L
-13.015 12.877 -12.664 12.792 QT
-12.312 12.706 -12.312 12.362 QT
-12.312 8.565 L
-12.312 7.768 -12.539 7.276 QT
-12.765 6.784 -13.468 6.784 QT
-14.39 6.784 -14.992 7.526 QT
-15.593 8.268 -15.593 9.206 QT
-15.593 12.362 L
-15.593 12.706 -15.242 12.792 QT
-14.89 12.877 -14.343 12.877 QT
-14.343 13.44 L
-18 13.44 L
-18 12.877 L
-17.453 12.877 -17.101 12.792 QT
-16.75 12.706 -16.75 12.362 QT
-16.75 8.565 L
-16.75 7.784 -16.976 7.284 QT
-17.203 6.784 -17.906 6.784 QT
-18.843 6.784 -19.437 7.526 QT
-20.031 8.268 -20.031 9.206 QT
-20.031 12.362 L
-20.031 12.706 -19.679 12.792 QT
-19.328 12.877 -18.796 12.877 QT
-18.796 13.44 L
-22.453 13.44 L
cp
f
GR
GS
[0.75 0 0 0.75 530.25037 451.75002] CT
0.149 GC
N
-5.619 13.627 M
-6.588 13.627 -7.408 13.112 QT
-8.229 12.596 -8.69 11.737 QT
-9.151 10.877 -9.151 9.924 QT
-9.151 8.987 -8.729 8.143 QT
-8.307 7.299 -7.541 6.784 QT
-6.776 6.268 -5.838 6.268 QT
-5.104 6.268 -4.565 6.51 QT
-4.026 6.752 -3.674 7.19 QT
-3.322 7.627 -3.143 8.221 QT
-2.963 8.815 -2.963 9.534 QT
-2.963 9.737 -3.119 9.737 QT
-7.76 9.737 L
-7.76 9.909 L
-7.76 11.237 -7.221 12.19 QT
-6.682 13.143 -5.479 13.143 QT
-4.979 13.143 -4.565 12.924 QT
-4.151 12.706 -3.838 12.315 QT
-3.526 11.924 -3.416 11.487 QT
-3.401 11.424 -3.361 11.385 QT
-3.322 11.346 -3.26 11.346 QT
-3.119 11.346 L
-2.963 11.346 -2.963 11.549 QT
-3.182 12.456 -3.932 13.042 QT
-4.682 13.627 -5.619 13.627 QT
cp
-7.744 9.346 M
-4.088 9.346 L
-4.088 8.737 -4.26 8.12 QT
-4.432 7.502 -4.822 7.096 QT
-5.213 6.69 -5.838 6.69 QT
-6.744 6.69 -7.244 7.534 QT
-7.744 8.377 -7.744 9.346 QT
cp
f
GR
GS
[0.75 0 0 0.75 530.25037 451.75002] CT
0.149 GC
N
4.731 17.44 M
4.731 1.44 L
6.919 1.44 L
6.919 2.081 L
5.372 2.081 L
5.372 16.799 L
6.919 16.799 L
6.919 17.44 L
4.731 17.44 L
cp
f
GR
GS
[0.75 0 0 0.75 530.25037 451.75002] CT
0.149 GC
N
8.676 12.456 M
9.113 13.19 10.41 13.19 QT
10.973 13.19 11.481 13.002 QT
11.988 12.815 12.316 12.432 QT
12.645 12.049 12.645 11.502 QT
12.645 11.081 12.348 10.815 QT
12.051 10.549 11.629 10.456 QT
10.754 10.284 L
10.16 10.143 9.777 9.737 QT
9.395 9.331 9.395 8.752 QT
9.395 8.034 9.785 7.487 QT
10.176 6.94 10.809 6.651 QT
11.441 6.362 12.113 6.362 QT
12.848 6.362 13.418 6.713 QT
13.988 7.065 13.988 7.737 QT
13.988 8.112 13.785 8.393 QT
13.582 8.674 13.207 8.674 QT
13.004 8.674 12.848 8.534 QT
12.691 8.393 12.691 8.19 QT
12.691 8.002 12.801 7.823 QT
12.91 7.643 13.082 7.542 QT
13.254 7.44 13.441 7.44 QT
13.301 7.096 12.918 6.94 QT
12.535 6.784 12.082 6.784 QT
11.676 6.784 11.27 6.948 QT
10.863 7.112 10.621 7.424 QT
10.379 7.737 10.379 8.174 QT
10.379 8.456 10.582 8.674 QT
10.785 8.893 11.082 8.987 QT
12.004 9.174 L
12.457 9.268 12.824 9.51 QT
13.191 9.752 13.41 10.112 QT
13.629 10.471 13.629 10.94 QT
13.629 11.534 13.293 12.112 QT
12.957 12.69 12.473 13.034 QT
11.629 13.627 10.395 13.627 QT
9.535 13.627 8.824 13.229 QT
8.113 12.831 8.113 12.065 QT
8.113 11.627 8.371 11.299 QT
8.629 10.971 9.066 10.971 QT
9.316 10.971 9.496 11.127 QT
9.676 11.284 9.676 11.549 QT
9.676 11.909 9.402 12.182 QT
9.129 12.456 8.754 12.456 QT
8.676 12.456 L
cp
f
GR
GS
[0.75 0 0 0.75 530.25037 451.75002] CT
0.149 GC
N
18.004 13.627 M
17.238 13.627 16.668 13.221 QT
16.098 12.815 15.793 12.143 QT
15.488 11.471 15.488 10.721 QT
15.488 9.581 16.066 8.573 QT
16.645 7.565 17.629 6.963 QT
18.613 6.362 19.738 6.362 QT
20.426 6.362 20.934 6.721 QT
21.441 7.081 21.441 7.737 QT
21.441 8.659 20.707 9.112 QT
19.973 9.565 19.051 9.667 QT
18.129 9.768 17.02 9.768 QT
16.973 9.768 L
16.707 10.721 16.707 11.409 QT
16.707 12.112 17.035 12.651 QT
17.363 13.19 18.035 13.19 QT
18.988 13.19 19.871 12.752 QT
20.754 12.315 21.301 11.549 QT
21.348 11.502 21.426 11.502 QT
21.504 11.502 21.59 11.588 QT
21.676 11.674 21.676 11.752 QT
21.676 11.815 21.645 11.846 QT
21.051 12.674 20.059 13.151 QT
19.066 13.627 18.004 13.627 QT
cp
17.066 9.362 M
17.988 9.362 18.777 9.276 QT
19.566 9.19 20.207 8.838 QT
20.848 8.487 20.848 7.752 QT
20.848 7.456 20.684 7.237 QT
20.52 7.018 20.262 6.901 QT
20.004 6.784 19.723 6.784 QT
19.035 6.784 18.496 7.151 QT
17.957 7.518 17.606 8.104 QT
17.254 8.69 17.066 9.362 QT
cp
f
GR
GS
[0.75 0 0 0.75 530.25037 451.75002] CT
0.149 GC
N
24.11 11.534 M
24.11 12.221 24.47 12.706 QT
24.829 13.19 25.485 13.19 QT
26.438 13.19 27.321 12.752 QT
28.204 12.315 28.751 11.549 QT
28.798 11.502 28.876 11.502 QT
28.954 11.502 29.04 11.588 QT
29.126 11.674 29.126 11.752 QT
29.126 11.815 29.095 11.846 QT
28.501 12.674 27.509 13.151 QT
26.516 13.627 25.454 13.627 QT
24.688 13.627 24.102 13.26 QT
23.516 12.893 23.196 12.284 QT
22.876 11.674 22.876 10.909 QT
22.876 9.831 23.477 8.768 QT
24.079 7.706 25.079 7.034 QT
26.079 6.362 27.188 6.362 QT
27.907 6.362 28.477 6.713 QT
29.048 7.065 29.048 7.737 QT
29.048 8.174 28.798 8.487 QT
28.548 8.799 28.11 8.799 QT
27.86 8.799 27.681 8.635 QT
27.501 8.471 27.501 8.221 QT
27.501 7.846 27.774 7.581 QT
28.048 7.315 28.423 7.315 QT
28.454 7.315 L
28.266 7.034 27.907 6.909 QT
27.548 6.784 27.173 6.784 QT
26.235 6.784 25.532 7.581 QT
24.829 8.377 24.47 9.495 QT
24.11 10.612 24.11 11.534 QT
cp
f
GR
GS
[0.75 0 0 0.75 530.25037 451.75002] CT
0.149 GC
N
29.519 17.44 M
29.519 16.799 L
31.066 16.799 L
31.066 2.081 L
29.519 2.081 L
29.519 1.44 L
31.706 1.44 L
31.706 17.44 L
29.519 17.44 L
cp
f
GR
GS
[0.75 0 0 0.75 0 -0.25] CT
0.149 GC
2 setlinecap
1 LJ
0.667 LW
N
178 579 M
178 49 L
S
GR
GS
[0.75 0 0 0.75 0 -0.25] CT
0.149 GC
2 setlinecap
1 LJ
0.667 LW
N
1236 579 M
1236 49 L
S
GR
GS
[0.75 0 0 0.75 0 -0.25] CT
0.149 GC
2 setlinecap
1 LJ
0.667 LW
N
178 579 M
188.58 579 L
S
GR
GS
[0.75 0 0 0.75 0 -0.25] CT
0.149 GC
2 setlinecap
1 LJ
0.667 LW
N
178 503.286 M
188.58 503.286 L
S
GR
GS
[0.75 0 0 0.75 0 -0.25] CT
0.149 GC
2 setlinecap
1 LJ
0.667 LW
N
178 427.571 M
188.58 427.571 L
S
GR
GS
[0.75 0 0 0.75 0 -0.25] CT
0.149 GC
2 setlinecap
1 LJ
0.667 LW
N
178 351.857 M
188.58 351.857 L
S
GR
GS
[0.75 0 0 0.75 0 -0.25] CT
0.149 GC
2 setlinecap
1 LJ
0.667 LW
N
178 276.143 M
188.58 276.143 L
S
GR
GS
[0.75 0 0 0.75 0 -0.25] CT
0.149 GC
2 setlinecap
1 LJ
0.667 LW
N
178 200.429 M
188.58 200.429 L
S
GR
GS
[0.75 0 0 0.75 0 -0.25] CT
0.149 GC
2 setlinecap
1 LJ
0.667 LW
N
178 124.714 M
188.58 124.714 L
S
GR
GS
[0.75 0 0 0.75 0 -0.25] CT
0.149 GC
2 setlinecap
1 LJ
0.667 LW
N
178 49 M
188.58 49 L
S
GR
GS
[0.75 0 0 0.75 0 -0.25] CT
0.149 GC
2 setlinecap
1 LJ
0.667 LW
N
1236 579 M
1225.42 579 L
S
GR
GS
[0.75 0 0 0.75 0 -0.25] CT
0.149 GC
2 setlinecap
1 LJ
0.667 LW
N
1236 503.286 M
1225.42 503.286 L
S
GR
GS
[0.75 0 0 0.75 0 -0.25] CT
0.149 GC
2 setlinecap
1 LJ
0.667 LW
N
1236 427.571 M
1225.42 427.571 L
S
GR
GS
[0.75 0 0 0.75 0 -0.25] CT
0.149 GC
2 setlinecap
1 LJ
0.667 LW
N
1236 351.857 M
1225.42 351.857 L
S
GR
GS
[0.75 0 0 0.75 0 -0.25] CT
0.149 GC
2 setlinecap
1 LJ
0.667 LW
N
1236 276.143 M
1225.42 276.143 L
S
GR
GS
[0.75 0 0 0.75 0 -0.25] CT
0.149 GC
2 setlinecap
1 LJ
0.667 LW
N
1236 200.429 M
1225.42 200.429 L
S
GR
GS
[0.75 0 0 0.75 0 -0.25] CT
0.149 GC
2 setlinecap
1 LJ
0.667 LW
N
1236 124.714 M
1225.42 124.714 L
S
GR
GS
[0.75 0 0 0.75 0 -0.25] CT
0.149 GC
2 setlinecap
1 LJ
0.667 LW
N
1236 49 M
1225.42 49 L
S
GR
GS
[0.75 0 0 0.75 129.5 434] CT
0.149 GC
/Helvetica 13.333 F
GS
[1 0 0 1 0 0] CT
-8 5.5 moveto 
1 -1 scale
(0) t 
GR
GR
GS
[0.75 0 0 0.75 129.5 377.21428] CT
0.149 GC
/Helvetica 13.333 F
GS
[1 0 0 1 0 0] CT
-8 5.5 moveto 
1 -1 scale
(1) t 
GR
GR
GS
[0.75 0 0 0.75 129.5 320.42858] CT
0.149 GC
/Helvetica 13.333 F
GS
[1 0 0 1 0 0] CT
-8 5.5 moveto 
1 -1 scale
(2) t 
GR
GR
GS
[0.75 0 0 0.75 129.5 263.64286] CT
0.149 GC
/Helvetica 13.333 F
GS
[1 0 0 1 0 0] CT
-8 5.5 moveto 
1 -1 scale
(3) t 
GR
GR
GS
[0.75 0 0 0.75 129.5 206.85714] CT
0.149 GC
/Helvetica 13.333 F
GS
[1 0 0 1 0 0] CT
-8 5.5 moveto 
1 -1 scale
(4) t 
GR
GR
GS
[0.75 0 0 0.75 129.5 150.07143] CT
0.149 GC
/Helvetica 13.333 F
GS
[1 0 0 1 0 0] CT
-8 5.5 moveto 
1 -1 scale
(5) t 
GR
GR
GS
[0.75 0 0 0.75 129.5 93.28572] CT
0.149 GC
/Helvetica 13.333 F
GS
[1 0 0 1 0 0] CT
-8 5.5 moveto 
1 -1 scale
(6) t 
GR
GR
GS
[0.75 0 0 0.75 129.5 36.5] CT
0.149 GC
/Helvetica 13.333 F
GS
[1 0 0 1 0 0] CT
-8 5.5 moveto 
1 -1 scale
(7) t 
GR
GR
GS
[0.75 0 0 0.75 530.2505 33.125] CT
N
-150.731 -8.296 M
-150.731 -13.906 L
-150.731 -14.093 -150.512 -14.093 QT
-150.216 -14.093 L
-150.153 -14.093 -150.091 -14.031 QT
-150.028 -13.968 -150.028 -13.906 QT
-150.028 -11.546 -148.575 -10.249 QT
-147.122 -8.953 -144.747 -8.953 QT
-143.919 -8.953 -143.216 -9.437 QT
-142.512 -9.921 -142.122 -10.703 QT
-141.731 -11.484 -141.731 -12.312 QT
-141.731 -13.031 -142.02 -13.718 QT
-142.309 -14.406 -142.864 -14.914 QT
-143.419 -15.421 -144.106 -15.578 QT
-147.216 -16.343 L
-148.762 -16.749 -149.747 -18.023 QT
-150.731 -19.296 -150.731 -20.874 QT
-150.731 -22.124 -150.098 -23.21 QT
-149.466 -24.296 -148.387 -24.929 QT
-147.309 -25.562 -146.075 -25.562 QT
-143.669 -25.562 -142.247 -23.937 QT
-141.262 -25.499 L
-141.2 -25.562 -141.106 -25.562 QT
-140.934 -25.562 L
-140.872 -25.562 -140.809 -25.507 QT
-140.747 -25.453 -140.747 -25.359 QT
-140.747 -19.796 L
-140.747 -19.593 -140.934 -19.593 QT
-141.216 -19.593 L
-141.45 -19.593 -141.45 -19.796 QT
-141.45 -20.406 -141.653 -21.132 QT
-141.856 -21.859 -142.216 -22.531 QT
-142.575 -23.203 -142.997 -23.624 QT
-144.169 -24.796 -146.075 -24.796 QT
-146.887 -24.796 -147.583 -24.374 QT
-148.278 -23.953 -148.684 -23.242 QT
-149.091 -22.531 -149.091 -21.749 QT
-149.091 -20.718 -148.458 -19.874 QT
-147.825 -19.031 -146.794 -18.765 QT
-143.669 -17.999 L
-142.903 -17.812 -142.216 -17.328 QT
-141.528 -16.843 -141.067 -16.203 QT
-140.606 -15.562 -140.348 -14.765 QT
-140.091 -13.968 -140.091 -13.124 QT
-140.091 -11.828 -140.692 -10.671 QT
-141.294 -9.515 -142.38 -8.812 QT
-143.466 -8.109 -144.747 -8.109 QT
-145.544 -8.109 -146.38 -8.289 QT
-147.216 -8.468 -147.919 -8.828 QT
-148.622 -9.187 -149.184 -9.765 QT
-150.2 -8.187 L
-150.262 -8.109 -150.372 -8.109 QT
-150.512 -8.109 L
-150.731 -8.109 -150.731 -8.296 QT
cp
f
GR
GS
[0.75 0 0 0.75 530.2505 33.125] CT
N
-137.085 -4.703 M
-136.632 -4.343 -136.085 -4.343 QT
-134.57 -4.343 -133.601 -6.624 QT
-132.788 -8.64 L
-136.382 -17.453 L
-136.601 -17.906 -137.062 -18.023 QT
-137.523 -18.14 -138.288 -18.14 QT
-138.288 -18.984 L
-133.242 -18.984 L
-133.242 -18.14 L
-134.57 -18.14 -134.57 -17.578 QT
-134.57 -17.484 -134.538 -17.437 QT
-131.867 -10.874 L
-129.476 -16.781 L
-129.398 -16.968 -129.398 -17.187 QT
-129.398 -17.484 -129.554 -17.695 QT
-129.71 -17.906 -129.968 -18.023 QT
-130.226 -18.14 -130.538 -18.14 QT
-130.538 -18.984 L
-126.554 -18.984 L
-126.554 -18.14 L
-127.288 -18.14 -127.843 -17.804 QT
-128.398 -17.468 -128.71 -16.796 QT
-132.851 -6.624 L
-133.179 -5.843 -133.624 -5.195 QT
-134.07 -4.546 -134.702 -4.132 QT
-135.335 -3.718 -136.085 -3.718 QT
-136.96 -3.718 -137.624 -4.296 QT
-138.288 -4.874 -138.288 -5.734 QT
-138.288 -6.171 -137.984 -6.476 QT
-137.679 -6.781 -137.226 -6.781 QT
-136.929 -6.781 -136.687 -6.648 QT
-136.445 -6.515 -136.312 -6.281 QT
-136.179 -6.046 -136.179 -5.734 QT
-136.179 -5.343 -136.437 -5.039 QT
-136.695 -4.734 -137.085 -4.703 QT
cp
f
GR
GS
[0.75 0 0 0.75 530.2505 33.125] CT
N
-125.278 -8.562 M
-125.278 -12.484 L
-125.278 -12.671 -125.059 -12.671 QT
-124.778 -12.671 L
-124.637 -12.671 -124.59 -12.484 QT
-123.919 -8.999 -121.356 -8.999 QT
-120.215 -8.999 -119.45 -9.515 QT
-118.684 -10.031 -118.684 -11.109 QT
-118.684 -11.89 -119.278 -12.437 QT
-119.872 -12.984 -120.7 -13.171 QT
-122.294 -13.499 L
-123.106 -13.671 -123.77 -14.031 QT
-124.434 -14.39 -124.856 -14.999 QT
-125.278 -15.609 -125.278 -16.406 QT
-125.278 -17.453 -124.723 -18.124 QT
-124.169 -18.796 -123.278 -19.101 QT
-122.387 -19.406 -121.356 -19.406 QT
-120.122 -19.406 -119.2 -18.749 QT
-118.512 -19.343 L
-118.512 -19.406 -118.403 -19.406 QT
-118.215 -19.406 L
-118.153 -19.406 -118.09 -19.335 QT
-118.028 -19.265 -118.028 -19.203 QT
-118.028 -16.062 L
-118.028 -15.843 -118.215 -15.843 QT
-118.512 -15.843 L
-118.731 -15.843 -118.731 -16.062 QT
-118.731 -17.312 -119.426 -18.078 QT
-120.122 -18.843 -121.372 -18.843 QT
-122.45 -18.843 -123.239 -18.445 QT
-124.028 -18.046 -124.028 -17.062 QT
-124.028 -16.406 -123.465 -15.976 QT
-122.903 -15.546 -122.137 -15.359 QT
-120.512 -15.046 L
-119.684 -14.859 -118.973 -14.414 QT
-118.262 -13.968 -117.848 -13.289 QT
-117.434 -12.609 -117.434 -11.765 QT
-117.434 -10.89 -117.731 -10.249 QT
-118.028 -9.609 -118.567 -9.187 QT
-119.106 -8.765 -119.833 -8.57 QT
-120.559 -8.374 -121.356 -8.374 QT
-122.856 -8.374 -123.919 -9.374 QT
-124.794 -8.421 L
-124.794 -8.374 -124.919 -8.374 QT
-125.059 -8.374 L
-125.278 -8.374 -125.278 -8.562 QT
cp
f
GR
GS
[0.75 0 0 0.75 530.2505 33.125] CT
N
-114.155 -11.531 M
-114.155 -18.14 L
-116.155 -18.14 L
-116.155 -18.765 L
-114.577 -18.765 -113.843 -20.234 QT
-113.108 -21.703 -113.108 -23.406 QT
-112.405 -23.406 L
-112.405 -18.984 L
-109.03 -18.984 L
-109.03 -18.14 L
-112.405 -18.14 L
-112.405 -11.578 L
-112.405 -10.578 -112.077 -9.828 QT
-111.749 -9.078 -110.874 -9.078 QT
-110.061 -9.078 -109.694 -9.867 QT
-109.327 -10.656 -109.327 -11.578 QT
-109.327 -12.984 L
-108.639 -12.984 L
-108.639 -11.531 L
-108.639 -10.781 -108.913 -10.046 QT
-109.186 -9.312 -109.725 -8.843 QT
-110.264 -8.374 -111.046 -8.374 QT
-112.483 -8.374 -113.319 -9.234 QT
-114.155 -10.093 -114.155 -11.531 QT
cp
f
GR
GS
[0.75 0 0 0.75 530.2505 33.125] CT
N
-101.29 -8.374 M
-102.759 -8.374 -103.986 -9.14 QT
-105.212 -9.906 -105.908 -11.187 QT
-106.603 -12.468 -106.603 -13.906 QT
-106.603 -15.312 -105.962 -16.578 QT
-105.322 -17.843 -104.181 -18.624 QT
-103.04 -19.406 -101.634 -19.406 QT
-100.54 -19.406 -99.72 -19.031 QT
-98.9 -18.656 -98.376 -17.999 QT
-97.853 -17.343 -97.579 -16.453 QT
-97.306 -15.562 -97.306 -14.499 QT
-97.306 -14.187 -97.556 -14.187 QT
-104.509 -14.187 L
-104.509 -13.921 L
-104.509 -11.937 -103.704 -10.507 QT
-102.9 -9.078 -101.087 -9.078 QT
-100.353 -9.078 -99.72 -9.406 QT
-99.087 -9.734 -98.626 -10.32 QT
-98.165 -10.906 -98.009 -11.578 QT
-97.978 -11.656 -97.915 -11.718 QT
-97.853 -11.781 -97.775 -11.781 QT
-97.556 -11.781 L
-97.306 -11.781 -97.306 -11.484 QT
-97.65 -10.124 -98.775 -9.249 QT
-99.9 -8.374 -101.29 -8.374 QT
cp
-104.478 -14.781 M
-99.009 -14.781 L
-99.009 -15.687 -99.259 -16.609 QT
-99.509 -17.531 -100.095 -18.148 QT
-100.681 -18.765 -101.634 -18.765 QT
-102.994 -18.765 -103.736 -17.492 QT
-104.478 -16.218 -104.478 -14.781 QT
cp
f
GR
GS
[0.75 0 0 0.75 530.2505 33.125] CT
N
-95.889 -8.64 M
-95.889 -9.484 L
-95.077 -9.484 -94.546 -9.617 QT
-94.014 -9.749 -94.014 -10.249 QT
-94.014 -16.796 L
-94.014 -17.437 -94.21 -17.726 QT
-94.405 -18.015 -94.764 -18.078 QT
-95.124 -18.14 -95.889 -18.14 QT
-95.889 -18.984 L
-92.405 -19.249 L
-92.405 -16.906 L
-91.936 -17.937 -90.991 -18.593 QT
-90.046 -19.249 -88.936 -19.249 QT
-86.171 -19.249 -85.686 -16.999 QT
-85.202 -17.999 -84.28 -18.624 QT
-83.358 -19.249 -82.249 -19.249 QT
-81.155 -19.249 -80.413 -18.898 QT
-79.671 -18.546 -79.296 -17.828 QT
-78.921 -17.109 -78.921 -16.015 QT
-78.921 -10.249 L
-78.921 -9.749 -78.389 -9.617 QT
-77.858 -9.484 -77.046 -9.484 QT
-77.046 -8.64 L
-82.546 -8.64 L
-82.546 -9.484 L
-81.718 -9.484 -81.194 -9.617 QT
-80.671 -9.749 -80.671 -10.249 QT
-80.671 -15.937 L
-80.671 -17.156 -81.007 -17.89 QT
-81.343 -18.624 -82.405 -18.624 QT
-83.78 -18.624 -84.686 -17.515 QT
-85.593 -16.406 -85.593 -14.984 QT
-85.593 -10.249 L
-85.593 -9.749 -85.061 -9.617 QT
-84.53 -9.484 -83.718 -9.484 QT
-83.718 -8.64 L
-89.218 -8.64 L
-89.218 -9.484 L
-88.389 -9.484 -87.866 -9.617 QT
-87.343 -9.749 -87.343 -10.249 QT
-87.343 -15.937 L
-87.343 -17.109 -87.678 -17.867 QT
-88.014 -18.624 -89.077 -18.624 QT
-90.468 -18.624 -91.366 -17.515 QT
-92.264 -16.406 -92.264 -14.984 QT
-92.264 -10.249 L
-92.264 -9.749 -91.733 -9.617 QT
-91.202 -9.484 -90.389 -9.484 QT
-90.389 -8.64 L
-95.889 -8.64 L
cp
f
GR
GS
[0.75 0 0 0.75 530.2505 33.125] CT
N
-62.608 -8.374 M
-64.046 -8.374 -65.28 -9.109 QT
-66.514 -9.843 -67.225 -11.07 QT
-67.936 -12.296 -67.936 -13.749 QT
-67.936 -14.859 -67.546 -15.874 QT
-67.155 -16.89 -66.421 -17.695 QT
-65.686 -18.499 -64.717 -18.953 QT
-63.749 -19.406 -62.608 -19.406 QT
-61.124 -19.406 -59.913 -18.624 QT
-58.702 -17.843 -57.999 -16.539 QT
-57.296 -15.234 -57.296 -13.749 QT
-57.296 -12.312 -58.014 -11.078 QT
-58.733 -9.843 -59.952 -9.109 QT
-61.171 -8.374 -62.608 -8.374 QT
cp
-62.608 -9.078 M
-60.686 -9.078 -60.038 -10.468 QT
-59.389 -11.859 -59.389 -14.015 QT
-59.389 -15.234 -59.522 -16.023 QT
-59.655 -16.812 -60.092 -17.453 QT
-60.358 -17.859 -60.772 -18.156 QT
-61.186 -18.453 -61.647 -18.609 QT
-62.108 -18.765 -62.608 -18.765 QT
-63.358 -18.765 -64.03 -18.429 QT
-64.702 -18.093 -65.155 -17.453 QT
-65.592 -16.781 -65.717 -15.96 QT
-65.842 -15.14 -65.842 -14.015 QT
-65.842 -12.671 -65.608 -11.601 QT
-65.374 -10.531 -64.663 -9.804 QT
-63.952 -9.078 -62.608 -9.078 QT
cp
f
GR
GS
[0.75 0 0 0.75 530.2505 33.125] CT
N
-54.014 -11.499 M
-54.014 -16.796 L
-54.014 -17.437 -54.21 -17.726 QT
-54.405 -18.015 -54.764 -18.078 QT
-55.124 -18.14 -55.889 -18.14 QT
-55.889 -18.984 L
-52.264 -19.249 L
-52.264 -11.499 L
-52.264 -10.562 -52.124 -10.039 QT
-51.983 -9.515 -51.546 -9.257 QT
-51.108 -8.999 -50.155 -8.999 QT
-48.858 -8.999 -48.1 -10.078 QT
-47.342 -11.156 -47.342 -12.531 QT
-47.342 -16.796 L
-47.342 -17.437 -47.538 -17.726 QT
-47.733 -18.015 -48.092 -18.078 QT
-48.452 -18.14 -49.217 -18.14 QT
-49.217 -18.984 L
-45.592 -19.249 L
-45.592 -10.828 L
-45.592 -10.187 -45.397 -9.898 QT
-45.202 -9.609 -44.842 -9.546 QT
-44.483 -9.484 -43.717 -9.484 QT
-43.717 -8.64 L
-47.264 -8.374 L
-47.264 -10.406 L
-47.717 -9.499 -48.514 -8.937 QT
-49.311 -8.374 -50.264 -8.374 QT
-51.983 -8.374 -52.999 -9.109 QT
-54.014 -9.843 -54.014 -11.499 QT
cp
f
GR
GS
[0.75 0 0 0.75 530.2505 33.125] CT
N
-40.822 -11.531 M
-40.822 -18.14 L
-42.822 -18.14 L
-42.822 -18.765 L
-41.243 -18.765 -40.509 -20.234 QT
-39.775 -21.703 -39.775 -23.406 QT
-39.072 -23.406 L
-39.072 -18.984 L
-35.697 -18.984 L
-35.697 -18.14 L
-39.072 -18.14 L
-39.072 -11.578 L
-39.072 -10.578 -38.743 -9.828 QT
-38.415 -9.078 -37.54 -9.078 QT
-36.728 -9.078 -36.361 -9.867 QT
-35.993 -10.656 -35.993 -11.578 QT
-35.993 -12.984 L
-35.306 -12.984 L
-35.306 -11.531 L
-35.306 -10.781 -35.579 -10.046 QT
-35.853 -9.312 -36.392 -8.843 QT
-36.931 -8.374 -37.712 -8.374 QT
-39.15 -8.374 -39.986 -9.234 QT
-40.822 -10.093 -40.822 -11.531 QT
cp
f
GR
GS
[0.75 0 0 0.75 530.2505 33.125] CT
N
-33.316 -3.984 M
-33.316 -4.812 L
-32.504 -4.812 -31.973 -4.953 QT
-31.441 -5.093 -31.441 -5.593 QT
-31.441 -17.156 L
-31.441 -17.812 -31.91 -17.976 QT
-32.379 -18.14 -33.316 -18.14 QT
-33.316 -18.984 L
-29.769 -19.249 L
-29.769 -17.765 L
-29.113 -18.484 -28.238 -18.867 QT
-27.363 -19.249 -26.379 -19.249 QT
-24.957 -19.249 -23.824 -18.484 QT
-22.691 -17.718 -22.051 -16.468 QT
-21.41 -15.218 -21.41 -13.828 QT
-21.41 -12.374 -22.121 -11.117 QT
-22.832 -9.859 -24.058 -9.117 QT
-25.285 -8.374 -26.738 -8.374 QT
-28.488 -8.374 -29.691 -9.796 QT
-29.691 -5.593 L
-29.691 -5.093 -29.16 -4.953 QT
-28.629 -4.812 -27.816 -4.812 QT
-27.816 -3.984 L
-33.316 -3.984 L
cp
-29.691 -10.968 M
-29.269 -10.124 -28.519 -9.562 QT
-27.769 -8.999 -26.879 -8.999 QT
-26.051 -8.999 -25.41 -9.445 QT
-24.769 -9.89 -24.34 -10.64 QT
-23.91 -11.39 -23.707 -12.218 QT
-23.504 -13.046 -23.504 -13.828 QT
-23.504 -14.781 -23.848 -15.898 QT
-24.191 -17.015 -24.902 -17.789 QT
-25.613 -18.562 -26.613 -18.562 QT
-27.582 -18.562 -28.402 -18.062 QT
-29.223 -17.562 -29.691 -16.703 QT
-29.691 -10.968 L
cp
f
GR
GS
[0.75 0 0 0.75 530.2505 33.125] CT
N
-18.014 -11.499 M
-18.014 -16.796 L
-18.014 -17.437 -18.209 -17.726 QT
-18.405 -18.015 -18.764 -18.078 QT
-19.124 -18.14 -19.889 -18.14 QT
-19.889 -18.984 L
-16.264 -19.249 L
-16.264 -11.499 L
-16.264 -10.562 -16.124 -10.039 QT
-15.983 -9.515 -15.545 -9.257 QT
-15.108 -8.999 -14.155 -8.999 QT
-12.858 -8.999 -12.1 -10.078 QT
-11.342 -11.156 -11.342 -12.531 QT
-11.342 -16.796 L
-11.342 -17.437 -11.538 -17.726 QT
-11.733 -18.015 -12.092 -18.078 QT
-12.452 -18.14 -13.217 -18.14 QT
-13.217 -18.984 L
-9.592 -19.249 L
-9.592 -10.828 L
-9.592 -10.187 -9.397 -9.898 QT
-9.202 -9.609 -8.842 -9.546 QT
-8.483 -9.484 -7.717 -9.484 QT
-7.717 -8.64 L
-11.264 -8.374 L
-11.264 -10.406 L
-11.717 -9.499 -12.514 -8.937 QT
-13.311 -8.374 -14.264 -8.374 QT
-15.983 -8.374 -16.999 -9.109 QT
-18.014 -9.843 -18.014 -11.499 QT
cp
f
GR
GS
[0.75 0 0 0.75 530.2505 33.125] CT
N
-4.821 -11.531 M
-4.821 -18.14 L
-6.821 -18.14 L
-6.821 -18.765 L
-5.243 -18.765 -4.509 -20.234 QT
-3.775 -21.703 -3.775 -23.406 QT
-3.071 -23.406 L
-3.071 -18.984 L
0.304 -18.984 L
0.304 -18.14 L
-3.071 -18.14 L
-3.071 -11.578 L
-3.071 -10.578 -2.743 -9.828 QT
-2.415 -9.078 -1.54 -9.078 QT
-0.728 -9.078 -0.36 -9.867 QT
0.007 -10.656 0.007 -11.578 QT
0.007 -12.984 L
0.694 -12.984 L
0.694 -11.531 L
0.694 -10.781 0.421 -10.046 QT
0.147 -9.312 -0.392 -8.843 QT
-0.931 -8.374 -1.712 -8.374 QT
-3.15 -8.374 -3.985 -9.234 QT
-4.821 -10.093 -4.821 -11.531 QT
cp
f
GR
GS
[0.75 0 0 0.75 530.2505 33.125] CT
N
9.465 -3.984 M
9.231 -3.984 9.231 -4.296 QT
9.324 -4.812 9.559 -4.812 QT
10.309 -4.812 10.606 -4.953 QT
10.903 -5.093 11.074 -5.64 QT
13.778 -16.453 L
13.949 -16.89 13.949 -17.593 QT
13.949 -18.624 13.246 -18.624 QT
12.496 -18.624 12.137 -17.726 QT
11.778 -16.828 11.434 -15.468 QT
11.434 -15.312 11.231 -15.312 QT
10.949 -15.312 L
10.887 -15.312 10.817 -15.398 QT
10.746 -15.484 10.746 -15.562 QT
11.012 -16.593 11.254 -17.32 QT
11.496 -18.046 12.004 -18.648 QT
12.512 -19.249 13.278 -19.249 QT
14.09 -19.249 14.715 -18.789 QT
15.34 -18.328 15.512 -17.531 QT
16.168 -18.281 16.965 -18.765 QT
17.762 -19.249 18.606 -19.249 QT
19.606 -19.249 20.356 -18.71 QT
21.106 -18.171 21.481 -17.296 QT
21.856 -16.421 21.856 -15.421 QT
21.856 -13.874 21.059 -12.218 QT
20.262 -10.562 18.91 -9.468 QT
17.559 -8.374 16.012 -8.374 QT
15.309 -8.374 14.738 -8.773 QT
14.168 -9.171 13.856 -9.812 QT
12.762 -5.546 L
12.715 -5.187 12.699 -5.14 QT
12.699 -4.812 14.278 -4.812 QT
14.528 -4.812 14.528 -4.515 QT
14.449 -4.203 14.395 -4.093 QT
14.34 -3.984 14.121 -3.984 QT
9.465 -3.984 L
cp
16.043 -8.999 M
16.871 -8.999 17.582 -9.687 QT
18.293 -10.374 18.746 -11.234 QT
19.074 -11.874 19.363 -12.804 QT
19.653 -13.734 19.863 -14.789 QT
20.074 -15.843 20.074 -16.468 QT
20.074 -17.015 19.926 -17.499 QT
19.778 -17.984 19.442 -18.304 QT
19.106 -18.624 18.559 -18.624 QT
17.684 -18.624 16.903 -17.999 QT
16.121 -17.374 15.481 -16.453 QT
15.481 -16.359 L
14.168 -11.062 L
14.324 -10.218 14.793 -9.609 QT
15.262 -8.999 16.043 -8.999 QT
cp
f
GR
GS
[0.75 0 0 0.75 530.2505 33.125] CT
N
23.712 -5.04 M
23.712 -5.634 L
25.837 -5.634 25.837 -6.181 QT
25.837 -15.103 L
24.962 -14.681 23.618 -14.681 QT
23.618 -15.274 L
25.696 -15.274 26.759 -16.368 QT
26.993 -16.368 L
27.056 -16.368 27.11 -16.321 QT
27.165 -16.274 27.165 -16.212 QT
27.165 -6.181 L
27.165 -5.634 29.29 -5.634 QT
29.29 -5.04 L
23.712 -5.04 L
cp
f
GR
GS
[0.75 0 0 0.75 530.2505 33.125] CT
N
40.213 -11.828 M
40.01 -11.828 39.877 -11.984 QT
39.744 -12.14 39.744 -12.312 QT
39.744 -12.515 39.877 -12.656 QT
40.01 -12.796 40.213 -12.796 QT
55.275 -12.796 L
55.447 -12.796 55.58 -12.656 QT
55.713 -12.515 55.713 -12.312 QT
55.713 -12.14 55.58 -11.984 QT
55.447 -11.828 55.275 -11.828 QT
40.213 -11.828 L
cp
40.213 -16.499 M
40.01 -16.499 39.877 -16.64 QT
39.744 -16.781 39.744 -16.968 QT
39.744 -17.156 39.877 -17.304 QT
40.01 -17.453 40.213 -17.453 QT
55.275 -17.453 L
55.447 -17.453 55.58 -17.304 QT
55.713 -17.156 55.713 -16.968 QT
55.713 -16.781 55.58 -16.64 QT
55.447 -16.499 55.275 -16.499 QT
40.213 -16.499 L
cp
f
GR
GS
[0.75 0 0 0.75 530.2505 33.125] CT
N
65.827 -11.374 M
66.062 -10.671 66.577 -10.093 QT
67.093 -9.515 67.788 -9.195 QT
68.484 -8.874 69.234 -8.874 QT
70.968 -8.874 71.624 -10.226 QT
72.28 -11.578 72.28 -13.499 QT
72.28 -14.328 72.249 -14.898 QT
72.218 -15.468 72.093 -15.984 QT
71.874 -16.828 71.312 -17.46 QT
70.749 -18.093 69.952 -18.093 QT
69.14 -18.093 68.562 -17.851 QT
67.984 -17.609 67.616 -17.281 QT
67.249 -16.953 66.968 -16.585 QT
66.687 -16.218 66.624 -16.203 QT
66.343 -16.203 L
66.296 -16.203 66.202 -16.281 QT
66.109 -16.359 66.109 -16.421 QT
66.109 -24.437 L
66.109 -24.499 66.187 -24.562 QT
66.265 -24.624 66.343 -24.624 QT
66.421 -24.624 L
68.03 -23.859 69.859 -23.859 QT
71.64 -23.859 73.28 -24.624 QT
73.359 -24.624 L
73.437 -24.624 73.507 -24.57 QT
73.577 -24.515 73.577 -24.437 QT
73.577 -24.218 L
73.577 -24.093 73.53 -24.093 QT
72.718 -23.015 71.476 -22.406 QT
70.234 -21.796 68.921 -21.796 QT
67.952 -21.796 66.952 -22.062 QT
66.952 -17.531 L
67.749 -18.171 68.374 -18.445 QT
68.999 -18.718 69.968 -18.718 QT
71.296 -18.718 72.343 -17.96 QT
73.39 -17.203 73.952 -15.976 QT
74.515 -14.749 74.515 -13.468 QT
74.515 -12.031 73.804 -10.796 QT
73.093 -9.562 71.874 -8.835 QT
70.655 -8.109 69.234 -8.109 QT
68.046 -8.109 67.054 -8.718 QT
66.062 -9.328 65.499 -10.359 QT
64.937 -11.39 64.937 -12.562 QT
64.937 -13.093 65.288 -13.437 QT
65.64 -13.781 66.155 -13.781 QT
66.687 -13.781 67.046 -13.429 QT
67.405 -13.078 67.405 -12.562 QT
67.405 -12.046 67.046 -11.687 QT
66.687 -11.328 66.155 -11.328 QT
66.077 -11.328 65.976 -11.343 QT
65.874 -11.359 65.827 -11.374 QT
cp
f
GR
GS
[0.75 0 0 0.75 530.2505 33.125] CT
N
78.109 -4.312 M
78.109 -4.421 78.202 -4.515 QT
79.077 -5.343 79.554 -6.437 QT
80.03 -7.531 80.03 -8.734 QT
80.03 -9.031 L
79.655 -8.64 79.077 -8.64 QT
78.53 -8.64 78.14 -9.031 QT
77.749 -9.421 77.749 -9.968 QT
77.749 -10.531 78.14 -10.906 QT
78.53 -11.281 79.077 -11.281 QT
79.937 -11.281 80.296 -10.492 QT
80.655 -9.703 80.655 -8.734 QT
80.655 -7.39 80.124 -6.195 QT
79.593 -4.999 78.624 -4.031 QT
78.53 -3.984 78.468 -3.984 QT
78.343 -3.984 78.226 -4.093 QT
78.109 -4.203 78.109 -4.312 QT
cp
f
GR
GS
[0.75 0 0 0.75 530.2505 33.125] CT
N
85.806 -3.984 M
85.572 -3.984 85.572 -4.296 QT
85.666 -4.812 85.9 -4.812 QT
86.65 -4.812 86.947 -4.953 QT
87.244 -5.093 87.416 -5.64 QT
90.119 -16.453 L
90.291 -16.89 90.291 -17.593 QT
90.291 -18.624 89.588 -18.624 QT
88.838 -18.624 88.478 -17.726 QT
88.119 -16.828 87.775 -15.468 QT
87.775 -15.312 87.572 -15.312 QT
87.291 -15.312 L
87.228 -15.312 87.158 -15.398 QT
87.088 -15.484 87.088 -15.562 QT
87.353 -16.593 87.595 -17.32 QT
87.838 -18.046 88.345 -18.648 QT
88.853 -19.249 89.619 -19.249 QT
90.431 -19.249 91.056 -18.789 QT
91.681 -18.328 91.853 -17.531 QT
92.51 -18.281 93.306 -18.765 QT
94.103 -19.249 94.947 -19.249 QT
95.947 -19.249 96.697 -18.71 QT
97.447 -18.171 97.822 -17.296 QT
98.197 -16.421 98.197 -15.421 QT
98.197 -13.874 97.4 -12.218 QT
96.603 -10.562 95.252 -9.468 QT
93.9 -8.374 92.353 -8.374 QT
91.65 -8.374 91.08 -8.773 QT
90.51 -9.171 90.197 -9.812 QT
89.103 -5.546 L
89.056 -5.187 89.041 -5.14 QT
89.041 -4.812 90.619 -4.812 QT
90.869 -4.812 90.869 -4.515 QT
90.791 -4.203 90.736 -4.093 QT
90.681 -3.984 90.463 -3.984 QT
85.806 -3.984 L
cp
92.385 -8.999 M
93.213 -8.999 93.924 -9.687 QT
94.635 -10.374 95.088 -11.234 QT
95.416 -11.874 95.705 -12.804 QT
95.994 -13.734 96.205 -14.789 QT
96.416 -15.843 96.416 -16.468 QT
96.416 -17.015 96.267 -17.499 QT
96.119 -17.984 95.783 -18.304 QT
95.447 -18.624 94.9 -18.624 QT
94.025 -18.624 93.244 -17.999 QT
92.463 -17.374 91.822 -16.453 QT
91.822 -16.359 L
90.51 -11.062 L
90.666 -10.218 91.135 -9.609 QT
91.603 -8.999 92.385 -8.999 QT
cp
f
GR
GS
[0.75 0 0 0.75 530.2505 33.125] CT
N
99.319 -5.04 M
99.319 -5.493 L
99.319 -5.54 99.35 -5.587 QT
101.991 -8.509 L
102.6 -9.165 102.967 -9.603 QT
103.335 -10.04 103.702 -10.61 QT
104.069 -11.181 104.28 -11.774 QT
104.491 -12.368 104.491 -13.04 QT
104.491 -13.728 104.233 -14.368 QT
103.975 -15.009 103.467 -15.384 QT
102.96 -15.759 102.241 -15.759 QT
101.491 -15.759 100.905 -15.321 QT
100.319 -14.884 100.085 -14.165 QT
100.147 -14.181 100.256 -14.181 QT
100.647 -14.181 100.913 -13.931 QT
101.178 -13.681 101.178 -13.259 QT
101.178 -12.884 100.913 -12.61 QT
100.647 -12.337 100.256 -12.337 QT
99.866 -12.337 99.592 -12.618 QT
99.319 -12.899 99.319 -13.259 QT
99.319 -13.899 99.561 -14.462 QT
99.803 -15.024 100.256 -15.462 QT
100.71 -15.899 101.28 -16.134 QT
101.85 -16.368 102.491 -16.368 QT
103.46 -16.368 104.295 -15.954 QT
105.131 -15.54 105.624 -14.79 QT
106.116 -14.04 106.116 -13.04 QT
106.116 -12.29 105.788 -11.626 QT
105.46 -10.962 104.96 -10.423 QT
104.46 -9.884 103.67 -9.196 QT
102.881 -8.509 102.631 -8.274 QT
100.694 -6.415 L
102.335 -6.415 L
103.538 -6.415 104.35 -6.439 QT
105.163 -6.462 105.21 -6.509 QT
105.413 -6.712 105.616 -8.071 QT
106.116 -8.071 L
105.631 -5.04 L
99.319 -5.04 L
cp
f
GR
GS
[0.75 0 0 0.75 530.2505 33.125] CT
N
116.554 -11.828 M
116.351 -11.828 116.218 -11.984 QT
116.085 -12.14 116.085 -12.312 QT
116.085 -12.515 116.218 -12.656 QT
116.351 -12.796 116.554 -12.796 QT
131.617 -12.796 L
131.789 -12.796 131.921 -12.656 QT
132.054 -12.515 132.054 -12.312 QT
132.054 -12.14 131.921 -11.984 QT
131.789 -11.828 131.617 -11.828 QT
116.554 -11.828 L
cp
116.554 -16.499 M
116.351 -16.499 116.218 -16.64 QT
116.085 -16.781 116.085 -16.968 QT
116.085 -17.156 116.218 -17.304 QT
116.351 -17.453 116.554 -17.453 QT
131.617 -17.453 L
131.789 -17.453 131.921 -17.304 QT
132.054 -17.156 132.054 -16.968 QT
132.054 -16.781 131.921 -16.64 QT
131.789 -16.499 131.617 -16.499 QT
116.554 -16.499 L
cp
f
GR
GS
[0.75 0 0 0.75 530.2505 33.125] CT
N
142.169 -11.374 M
142.403 -10.671 142.919 -10.093 QT
143.434 -9.515 144.13 -9.195 QT
144.825 -8.874 145.575 -8.874 QT
147.309 -8.874 147.966 -10.226 QT
148.622 -11.578 148.622 -13.499 QT
148.622 -14.328 148.591 -14.898 QT
148.559 -15.468 148.434 -15.984 QT
148.216 -16.828 147.653 -17.46 QT
147.091 -18.093 146.294 -18.093 QT
145.481 -18.093 144.903 -17.851 QT
144.325 -17.609 143.958 -17.281 QT
143.591 -16.953 143.309 -16.585 QT
143.028 -16.218 142.966 -16.203 QT
142.684 -16.203 L
142.637 -16.203 142.544 -16.281 QT
142.45 -16.359 142.45 -16.421 QT
142.45 -24.437 L
142.45 -24.499 142.528 -24.562 QT
142.606 -24.624 142.684 -24.624 QT
142.762 -24.624 L
144.372 -23.859 146.2 -23.859 QT
147.981 -23.859 149.622 -24.624 QT
149.7 -24.624 L
149.778 -24.624 149.848 -24.57 QT
149.919 -24.515 149.919 -24.437 QT
149.919 -24.218 L
149.919 -24.093 149.872 -24.093 QT
149.059 -23.015 147.817 -22.406 QT
146.575 -21.796 145.262 -21.796 QT
144.294 -21.796 143.294 -22.062 QT
143.294 -17.531 L
144.091 -18.171 144.716 -18.445 QT
145.341 -18.718 146.309 -18.718 QT
147.637 -18.718 148.684 -17.96 QT
149.731 -17.203 150.294 -15.976 QT
150.856 -14.749 150.856 -13.468 QT
150.856 -12.031 150.145 -10.796 QT
149.434 -9.562 148.216 -8.835 QT
146.997 -8.109 145.575 -8.109 QT
144.387 -8.109 143.395 -8.718 QT
142.403 -9.328 141.841 -10.359 QT
141.278 -11.39 141.278 -12.562 QT
141.278 -13.093 141.63 -13.437 QT
141.981 -13.781 142.497 -13.781 QT
143.028 -13.781 143.387 -13.429 QT
143.747 -13.078 143.747 -12.562 QT
143.747 -12.046 143.387 -11.687 QT
143.028 -11.328 142.497 -11.328 QT
142.419 -11.328 142.317 -11.343 QT
142.216 -11.359 142.169 -11.374 QT
cp
f
GR
GS
[0.75 0 0 0.75 0 -0.25] CT
0.635 0.078 0.184 RC
1 LJ
2 LW
N
178 579 M
188.58 578.773 L
199.16 577.948 L
209.74 576.325 L
220.32 573.745 L
230.9 570.103 L
241.48 565.357 L
252.06 559.538 L
262.64 552.745 L
273.22 545.125 L
283.8 536.877 L
294.38 528.229 L
304.96 519.427 L
315.54 510.706 L
326.12 502.251 L
336.7 494.202 L
347.28 486.651 L
357.86 479.645 L
368.44 473.142 L
379.02 466.999 L
389.6 461.057 L
400.18 455.138 L
410.76 449.049 L
421.34 442.583 L
431.92 435.518 L
442.5 427.695 L
453.08 419.041 L
463.66 409.537 L
474.24 399.22 L
484.82 388.187 L
495.4 376.588 L
505.98 364.632 L
516.56 352.566 L
527.14 340.642 L
537.72 329.099 L
548.3 318.119 L
558.88 307.832 L
569.46 298.312 L
580.04 289.581 L
590.62 281.605 L
601.2 274.296 L
611.78 267.512 L
622.36 261.06 L
632.94 254.687 L
643.52 248.17 L
654.1 241.333 L
664.68 234.051 L
675.26 226.247 L
685.84 217.897 L
696.42 209.023 L
707 199.699 L
717.58 190.061 L
728.16 180.363 L
738.74 170.866 L
749.32 161.798 L
759.9 153.356 L
770.48 145.706 L
781.06 138.979 L
791.64 133.277 L
802.22 128.668 L
812.8 125.098 L
823.38 122.384 L
833.96 120.332 L
844.54 118.751 L
855.12 117.452 L
865.7 116.247 L
876.28 114.951 L
886.86 113.38 L
897.44 111.366 L
908.02 108.898 L
918.6 106.061 L
929.18 102.969 L
939.76 99.766 L
950.34 96.62 L
960.92 93.73 L
971.5 91.324 L
982.08 89.657 L
992.66 88.954 L
1003.24 89.3 L
1013.82 90.717 L
1024.4 93.183 L
1034.98 96.633 L
1045.56 100.959 L
1056.14 106.007 L
1066.72 111.582 L
1077.3 117.442 L
1087.88 123.307 L
1098.46 128.945 L
1109.04 134.23 L
1119.62 139.088 L
1130.2 143.493 L
1140.78 147.471 L
1151.36 151.095 L
1161.94 154.491 L
1172.52 157.834 L
1183.1 161.348 L
1193.68 165.283 L
1204.26 169.827 L
1214.84 175.146 L
1225.42 181.351 L
1236 188.495 L
S
GR
GS
[0.75 0 0 0.75 0 -0.25] CT
0.929 0.694 0.125 RC
1 LJ
2 LW
N
178 579 M
188.58 578.778 L
199.16 577.968 L
209.74 576.376 L
220.32 573.844 L
230.9 570.27 L
241.48 565.612 L
252.06 559.898 L
262.64 553.226 L
273.22 545.74 L
283.8 537.633 L
294.38 529.131 L
304.96 520.472 L
315.54 511.886 L
326.12 503.557 L
336.7 495.621 L
347.28 488.169 L
357.86 481.243 L
368.44 474.808 L
379.02 468.723 L
389.6 462.828 L
400.18 456.949 L
410.76 450.897 L
421.34 444.472 L
431.92 437.46 L
442.5 429.695 L
453.08 421.106 L
463.66 411.678 L
474.24 401.447 L
484.82 390.508 L
495.4 379.006 L
505.98 367.144 L
516.56 355.167 L
527.14 343.322 L
537.72 331.842 L
548.3 320.906 L
558.88 310.642 L
569.46 301.123 L
580.04 292.368 L
590.62 284.346 L
601.2 276.969 L
611.78 270.097 L
622.36 263.543 L
632.94 257.068 L
643.52 250.449 L
654.1 243.509 L
664.68 236.123 L
675.26 228.217 L
685.84 219.767 L
696.42 210.803 L
707 201.402 L
717.58 191.693 L
728.16 181.902 L
738.74 172.296 L
749.32 163.111 L
759.9 154.543 L
770.48 146.753 L
781.06 139.867 L
791.64 133.972 L
802.22 129.121 L
812.8 125.301 L
823.38 122.339 L
833.96 120.031 L
844.54 118.179 L
855.12 116.592 L
865.7 115.091 L
876.28 113.502 L
886.86 111.66 L
897.44 109.409 L
908.02 106.699 L
918.6 103.619 L
929.18 100.289 L
939.76 96.854 L
950.34 93.483 L
960.92 90.372 L
971.5 87.741 L
982.08 85.835 L
992.66 84.878 L
1003.24 84.957 L
1013.82 86.095 L
1024.4 88.27 L
1034.98 91.42 L
1045.56 95.438 L
1056.14 100.175 L
1066.72 105.439 L
1077.3 110.995 L
1087.88 116.566 L
1098.46 121.929 L
1109.04 126.96 L
1119.62 131.585 L
1130.2 135.779 L
1140.78 139.565 L
1151.36 143.019 L
1161.94 146.263 L
1172.52 149.468 L
1183.1 152.855 L
1193.68 156.67 L
1204.26 161.096 L
1214.84 166.297 L
1225.42 172.381 L
1236 179.402 L
S
GR
%%Trailer
%%Pages: 1
%%EOF
