\relax 
\providecommand\hyper@newdestlabel[2]{}
\providecommand\babel@aux[2]{}
\@nameuse{bbl@beforestart}
\providecommand\HyperFirstAtBeginDocument{\AtBeginDocument}
\HyperFirstAtBeginDocument{\ifx\hyper@anchor\@undefined
\global\let\oldcontentsline\contentsline
\gdef\contentsline#1#2#3#4{\oldcontentsline{#1}{#2}{#3}}
\global\let\oldnewlabel\newlabel
\gdef\newlabel#1#2{\newlabelxx{#1}#2}
\gdef\newlabelxx#1#2#3#4#5#6{\oldnewlabel{#1}{{#2}{#3}}}
\AtEndDocument{\ifx\hyper@anchor\@undefined
\let\contentsline\oldcontentsline
\let\newlabel\oldnewlabel
\fi}
\fi}
\global\let\hyper@last\relax 
\gdef\HyperFirstAtBeginDocument#1{#1}
\providecommand\HyField@AuxAddToFields[1]{}
\providecommand\HyField@AuxAddToCoFields[2]{}
\babel@aux{greek}{}
\@writefile{toc}{\contentsline {section}{\numberline {1}Εισαγωγή}{1}{section.1}\protected@file@percent }
\@writefile{toc}{\contentsline {section}{\numberline {2}Θέμα Α}{1}{section.2}\protected@file@percent }
\@writefile{lof}{\contentsline {figure}{\numberline {1}{\ignorespaces Σύστημα μάζας-ελατηρίου-αποσβεστήρα\relax }}{1}{figure.caption.1}\protected@file@percent }
\providecommand*\caption@xref[2]{\@setref\relax\@undefined{#1}}
\newlabel{elathrio}{{1}{1}{Σύστημα μάζας-ελατηρίου-αποσβεστήρα\relax }{figure.caption.1}{}}
\@writefile{lof}{\contentsline {figure}{\numberline {2}{\ignorespaces Πραγματική και εκτιμώμενη απόκριση, πόλοι $p_1=50$ και $p_2=50$\relax }}{3}{figure.caption.2}\protected@file@percent }
\@writefile{lof}{\contentsline {figure}{\numberline {3}{\ignorespaces Πραγματική και εκτιμώμενη απόκριση, πόλοι $p_1=10$ και $p_2=20$\relax }}{3}{figure.caption.3}\protected@file@percent }
\@writefile{lof}{\contentsline {figure}{\numberline {4}{\ignorespaces Πραγματική και εκτιμώμενη απόκριση, πόλοι $p_1=5$ και $p_2=5$\relax }}{4}{figure.caption.4}\protected@file@percent }
\@writefile{toc}{\contentsline {section}{\numberline {3}Θέμα Β}{4}{section.3}\protected@file@percent }
\@writefile{lof}{\contentsline {figure}{\numberline {5}{\ignorespaces Σύστημα πηνίου-πυκνωτή-αντίστασης\relax }}{5}{figure.caption.5}\protected@file@percent }
\newlabel{phnio}{{5}{5}{Σύστημα πηνίου-πυκνωτή-αντίστασης\relax }{figure.caption.5}{}}
\@writefile{lof}{\contentsline {figure}{\numberline {6}{\ignorespaces Πραγματική και εκτιμώμενη απόκριση, πόλοι $p_1=10$ και $p_2=10$\relax }}{6}{figure.caption.6}\protected@file@percent }
\@writefile{lof}{\contentsline {figure}{\numberline {7}{\ignorespaces Πραγματική και εκτιμώμενη απόκριση, πόλοι $p_1=50$ και $p_2=200$\relax }}{7}{figure.caption.7}\protected@file@percent }
\@writefile{lof}{\contentsline {figure}{\numberline {8}{\ignorespaces Πραγματική και εκτιμώμενη απόκριση, πόλοι $p_1=50$ και $p_2=1000$\relax }}{7}{figure.caption.8}\protected@file@percent }
\@writefile{lof}{\contentsline {figure}{\numberline {9}{\ignorespaces Πραγματική και εκτιμώμενη απόκριση με εισαγωγή τυχαίων μετρήσεων\relax }}{8}{figure.caption.9}\protected@file@percent }
\gdef \@abspage@last{8}
